,0,1,2,3,4,5
0,6673.354097023592,6673.354097023592,6673.354097023592,6673.354097023592,6673.354097023592,6673.354097023592
1,3498.4541038479842,3498.4541038479842,3498.4541038479842,3498.4541038479842,3498.4541038479842,3498.4541038479842
2,1348.44870748601,1348.44870748601,1348.44870748601,1348.44870748601,1348.44870748601,1348.44870748601
3,5541.149212134774,5541.149212134774,5541.149212134774,5541.149212134774,5541.149212134774,5541.149212134774
4,2749.1346158887955,2749.1346158887955,2749.1346158887955,2749.1346158887955,2749.1346158887955,2749.1346158887955
5,982.0777903006912,982.0777903006912,982.0777903006912,982.0777903006912,982.0777903006912,982.0777903006912
6,6200.314834477287,6200.314834477287,6200.314834477287,6200.314834477287,6200.314834477287,6200.314834477287
7,3187.079329149722,3187.079329149722,3187.079329149722,3187.079329149722,3187.079329149722,3187.079329149722
8,1145.4834996277073,1145.4834996277073,1145.4834996277073,1145.4834996277073,1145.4834996277073,1145.4834996277073
9,6673.354096949079,6542.221571909495,5461.440747431865,4785.769292025472,4931.694840042448,5733.559319201609
10,3498.454103989707,3411.2100207924873,2781.2099069125375,2329.2248408080095,2381.8814386047256,2935.9995462272564
11,1348.4487074452732,1297.9169074718754,1048.4668770945066,812.5951979358956,837.0590681969122,1052.47028678808
12,5541.14921214527,5829.414004615693,4034.350526584638,4663.670933764663,3567.8289316187183,3818.4189766287086
13,2749.1346158813553,2717.7358000646786,1844.643044182532,2288.6873577377555,1581.2054180564692,1910.9006452822366
14,982.0777903358473,837.480290831211,588.8726111972568,709.0389253680454,415.9087002386691,608.2642023190997
15,6200.314834421929,5326.125259818064,4378.54220474916,3855.2675604614556,3133.364449396961,2669.4371054838193
16,3187.0793291522186,2735.1779382609793,2194.745120327346,1792.6733107176494,1498.9252996007037,1284.9494190956277
17,1145.4834995878784,949.5597411948529,724.606847673814,558.8954924462375,452.1333392042049,372.0269258440537
18,6687.129265664396,6550.011274059711,5469.966084362573,4794.356569147409,4942.363285029251,5745.786341684486
19,3505.5760222881167,3415.4366782733036,2785.0998608043624,2330.8187832986678,2385.6935530857986,2940.777787184075
20,1351.6987861259859,1299.637293868255,1050.5520123519807,812.7539178263385,837.9362065546648,1053.8190400121675
21,5555.3940067438725,5841.246360764354,4040.9763776998857,4673.773791364357,3573.639153806183,3823.850073378052
22,2756.9657864114365,2720.602130487671,1847.8922454339581,2291.614876612225,1583.157363148383,1913.0696594694982
23,985.4600462415683,838.2608176993047,590.2212411279837,709.7729518527224,416.02940805165167,608.6526041707285
24,6213.6202428127035,5332.894664265364,4384.2975829569905,3863.5387225596132,3138.945492846455,2674.310027146785
25,3193.6197133889277,2739.0441289964633,2197.511819568252,1794.6875778266372,1499.9698680702493,1286.4288199349244
26,1148.3900455867392,951.2392236737965,725.824630795428,559.4407639710381,452.2038543180275,372.3066539947525
27,6687.12926573907,6680.84007064416,6681.463312804584,6687.010492677202,6687.010492677202,6687.010492677202
28,3505.576022146495,3502.10152537366,3502.635362641635,3503.534558194692,3503.534558194692,3503.534558194692
29,1351.6987861666166,1350.1280941409348,1350.6943465934664,1349.4888582014746,1349.4888582014746,1349.4888582014746
30,5555.394006733199,5549.520046849595,5549.10555477155,5551.254739709534,5551.254739709534,5551.254739709534
31,2756.9657864189767,2751.493142989477,2752.318643078717,2751.8072171791537,2751.8072171791537,2751.8072171791537
32,985.460046206506,982.6083978305306,983.3513864896486,982.2218514248758,982.2218514248758,982.2218514248758
33,6213.620242867733,6207.535804360207,6207.874072751935,6213.4677837918225,6213.4677837918225,6213.4677837918225
34,3193.6197133862383,3190.6680049547003,3191.1322161264366,3192.872811651001,3192.872811651001,3192.872811651001
35,1148.390045626515,1146.6473623668971,1147.2708024034655,1146.4289340856812,1146.4289340856812,1146.4289340856812
