,0,1,2,3,4,5
0,26541.599792964098,26541.599792964098,26541.599792964098,26541.599792964098,26541.599792964098,26541.599792964098
1,26683.798479574758,26402.380643826848,26555.976529820702,26572.19838510844,26439.612645473364,26586.97758564986
2,26699.806219737755,26468.08443914187,26594.72863793298,26568.978190106398,26337.592771733962,26535.40764906953
3,26369.321459467872,26671.600679642295,26607.410559295684,25807.495553951183,25485.79660920397,26403.08903462347
4,26700.354542374393,26458.679709896183,26201.791155290808,25645.45618172313,25182.303712163302,26367.829702253035
5,26483.186785900463,26611.48517463151,26220.43238660269,25353.558884412483,25173.002270520326,26139.053943087354
6,26806.48396750294,27017.924990954718,27090.20617997952,26450.461203314055,26156.847776839702,27086.07883309036
7,27085.35994783545,27086.085897330373,26747.234007399944,26131.31737344453,25628.83846684613,26506.997230105837
8,27093.37541799239,26999.69101175299,27020.270884952097,26295.9921811109,25949.336655773568,27026.674862559914
9,26856.218485419355,26949.839193358246,27136.616608188593,27314.00073824221,27314.00073824221,27314.00073824221
10,27137.023287106822,27020.385712803683,26932.68195902209,27021.51012948521,26755.16027100152,26755.16027100152
11,27101.456677226233,27025.017394324706,27170.140678373908,27281.09087731787,27142.451204599074,27350.588408080173
