,0,1,2,3,4,5
0,89916.93139999916,89916.93139999916,89916.93139999916,89916.93139999916,89916.93139999916,89916.93139999916
1,89916.93139999916,89916.93139999916,89916.93139999916,89916.93139999916,89916.93139999916,89916.93139999916
2,89916.93139999916,89916.93139999916,89916.93139999916,89916.93139999916,89916.93139999916,89916.93139999916
3,89916.93139999916,89916.93139999916,89916.93139999916,89916.93139999916,89916.93139999916,89916.93139999916
4,89916.93139999916,89916.93139999916,89916.93139999916,89916.93139999916,89916.93139999916,89916.93139999916
5,89916.93139999916,89916.93139999916,89916.93139999916,89916.93139999916,89916.93139999916,89916.93139999916
6,89916.93139999916,89916.93139999916,89916.93139999916,89916.93139999916,89916.93139999916,89916.93139999916
7,89916.93139999916,89916.93139999916,89916.93139999916,89916.93139999916,89916.93139999916,89916.93139999916
8,89916.93139999916,89916.93139999916,89916.93139999916,89916.93139999916,89916.93139999916,89916.93139999916
9,89916.93139999916,89916.93139999916,89916.93139999916,89916.93139999916,89916.93139999916,89916.93139999916
10,89916.93139999916,89916.93139999916,89916.93139999916,89916.93139999916,89916.93139999916,89916.93139999916
11,89916.93139999916,89916.93139999916,89916.93139999916,89916.93139999916,89916.93139999916,89916.93139999916
