,0,1,2,3,4,5
0,57951.3596794607,57951.3596794607,57951.3596794607,57951.3596794607,57951.3596794607,57951.3596794607
1,57951.359679460715,57951.359679460715,57951.359679460715,57951.359679460715,57951.359679460715,57951.359679460715
2,59410.65648960779,55797.25719868546,50918.73664827623,46678.81850922384,41690.731962607315,46695.60487747401
3,57660.959992026306,56889.88347225061,56580.65393657112,54356.71878551683,54115.13706043966,56077.657122125696
4,57965.7142416626,57076.48649682664,56864.98096213049,54653.36166188476,53042.68172020568,55141.95262314717
5,59491.24367420591,53788.36931016099,48987.50855673516,45752.0535587606,38591.45501054138,43290.72758505031
6,77030.87587318414,75765.9509311594,75013.0792134638,74052.02771593365,74207.28030113291,75405.62131159435
7,64051.5223540009,58050.275931287746,101629.03342783665,117471.87325917692,116178.71469944224,117276.89914611881
8,63628.085554471865,59742.2556304063,75652.0824185576,80099.39869145177,76690.50535066969,79916.56912252902
9,77091.37496019137,77233.20434106317,77410.26279288705,77669.06058060024,77669.06058060024,77669.06058060024
10,64084.672869684706,59247.32211643212,104848.18871173415,118858.1189259953,117827.64417317591,117827.64417317591
11,63736.28010905128,60871.323340639974,78909.84517455543,83945.41928531602,81498.22873617763,82963.09898551388
