,0,1,2,3,4,5
0,193921.8327993598,193921.8327993598,193921.8327993598,193921.8327993598,193921.8327993598,193921.8327993598
1,193921.8327993598,193921.8327993598,193921.8327993598,193921.8327993598,193921.8327993598,193921.8327993598
2,193921.8327993598,193921.8327993598,193921.8327993598,193921.8327993598,193921.8327993598,193921.8327993598
3,191745.78645311945,191745.78645311945,191745.78645311945,191745.78645311945,191745.78645311945,191745.78645311945
4,191745.78645311945,191745.78645311945,191745.78645311945,191745.78645311945,191745.78645311945,191745.78645311945
5,191745.78645311945,191745.78645311945,191745.78645311945,191745.78645311945,191745.78645311945,191745.78645311945
6,193068.18109152003,193068.18109152003,193068.18109152003,193068.18109152003,193068.18109152003,193068.18109152003
7,193068.18109152003,193068.18109152003,193068.18109152003,193068.18109152003,193068.18109152003,193068.18109152003
8,193068.18109152003,193068.18109152003,193068.18109152003,193068.18109152003,193068.18109152003,193068.18109152003
9,193921.8327993598,200145.6937310394,201940.28475119994,202576.30360703994,202245.46814015973,204227.80479648034
10,193921.8327993598,200145.6937310394,201940.28475119994,202576.30360703994,202245.46814015973,204227.80479648034
11,193921.8327993598,200145.6937310394,201940.28475119994,202576.30360703994,202245.46814015973,204227.80479648034
12,191745.78645311945,194855.3272785602,197728.39285487978,200794.03555103976,202133.6522884798,203334.62013792113
13,191745.78645311945,194855.3272785602,197728.39285487978,200794.03555103976,202133.6522884798,203334.62013792113
14,191745.78645311945,194855.3272785602,197728.39285487978,200794.03555103976,202133.6522884798,203334.62013792113
15,193068.18109152003,199539.71358048008,202689.2692526398,203288.14321056037,207134.95153104045,212157.47349071898
16,193068.18109152003,199539.71358048008,202689.2692526398,203288.14321056037,207134.95153104045,212157.47349071898
17,193068.18109152003,199539.71358048008,202689.2692526398,203288.14321056037,207134.95153104045,212157.47349071898
18,193921.8327993598,200145.6937310394,201940.28475119994,202576.30360703994,202245.46814015973,204227.80479648034
19,193921.8327993598,200145.6937310394,201940.28475119994,202576.30360703994,202245.46814015973,204227.80479648034
20,193921.8327993598,200145.6937310394,201940.28475119994,202576.30360703994,202245.46814015973,204227.80479648034
21,191745.78645311945,194855.3272785602,197728.39285487978,200794.03555103976,202133.6522884798,203334.62013792113
22,191745.78645311945,194855.3272785602,197728.39285487978,200794.03555103976,202133.6522884798,203334.62013792113
23,191745.78645311945,194855.3272785602,197728.39285487978,200794.03555103976,202133.6522884798,203334.62013792113
24,193068.18109152003,199539.71358048008,202689.2692526398,203288.14321056037,207134.95153104045,212157.47349071898
25,193068.18109152003,199539.71358048008,202689.2692526398,203288.14321056037,207134.95153104045,212157.47349071898
26,193068.18109152003,199539.71358048008,202689.2692526398,203288.14321056037,207134.95153104045,212157.47349071898
27,193921.8327993598,193921.8327993598,193921.8327993598,193921.8327993598,193921.8327993598,193921.8327993598
28,193921.8327993598,193921.8327993598,193921.8327993598,193921.8327993598,193921.8327993598,193921.8327993598
29,193921.8327993598,193921.8327993598,193921.8327993598,193921.8327993598,193921.8327993598,193921.8327993598
30,191745.78645311945,191745.78645311945,191745.78645311945,191745.78645311945,191745.78645311945,191745.78645311945
31,191745.78645311945,191745.78645311945,191745.78645311945,191745.78645311945,191745.78645311945,191745.78645311945
32,191745.78645311945,191745.78645311945,191745.78645311945,191745.78645311945,191745.78645311945,191745.78645311945
33,193068.18109152003,193068.18109152003,193068.18109152003,193068.18109152003,193068.18109152003,193068.18109152003
34,193068.18109152003,193068.18109152003,193068.18109152003,193068.18109152003,193068.18109152003,193068.18109152003
35,193068.18109152003,193068.18109152003,193068.18109152003,193068.18109152003,193068.18109152003,193068.18109152003
