,0,1,2,3,4,5,6,7,8,9,10,11,12,13,14,15,16,17,18,19,20,21,22,23,24,25,26,27,28,29,30,31,32,33,34,35,36,37,38,39,40,41,42,43,44,45,46,47,48,49,50,51,52,53,54,55,56,57,58,59,60,61,62,63,64,65,66,67,68,69,70,71,72,73,74,75,76,77,78,79,80,81,82,83,84,85,86,87,88,89,90,91,92,93,94,95
0,504305.37661771727,454078.6794928207,469365.4766810889,503224.47858452675,511537.41453330335,507209.0333386529,509816.2754179408,510586.3619291428,510465.4561354802,503291.9106332238,499413.3009935973,513297.2032305933,505881.1002767387,508742.55344648194,507670.42684936704,506598.09463702113,507389.74484539416,507725.2990548463,506630.77714203985,506892.63823882147,454078.67949282075,469365.47668108885,503224.47858455026,511537.4145333221,507209.033338674,509816.27541794104,510586.3619291518,510465.45613548596,502847.95488052844,499373.69878010644,513211.81658288056,504497.4598821995,507641.8324680694,505664.55574169167,504932.7045288922,505551.9698481399,505785.0994012744,504709.35506059567,504305.3766196347,454078.6794928207,469365.4766810888,503224.47858454933,511537.41453332314,507209.03333867074,509816.27541794104,510586.3619291747,510465.4561354804,502847.9548805196,499373.69878009893,513211.81658292474,504497.45988219976,507641.832468066,505664.55574167095,504932.70452891284,505551.9698481496,505785.09940126614,504709.3550606036,504305.3766196347,454078.67949282064,469365.47668108897,503224.47858452675,511537.4145333037,507209.03333865316,509816.275417949,510586.3619291563,510465.4561354815,502847.9548805368,499373.69878010533,513211.81658287044,504497.4598821966,507641.83246806945,505664.5557417989,504932.70452887134,505551.969848134,505785.0994012525,504709.3550606264,504305.37661771406,446689.95697209897,465188.1731886127,498505.7922572935,505793.5233465995,501763.3176937609,504305.8842574336,504422.066343759,504523.7908596691,498567.75072276534,495597.71936556615,509139.47900234157,501661.496579139,504533.9807881012,503279.5268362189,502726.0222428868,503994.88384668453,504463.79825668124,503898.3521838789,504305.37661772047
1,87609.0,733.0,974.0,1215.0,1456.0,1697.0,1938.0,2179.0,2420.0,2902.0,3625.0,5071.0,6517.0,8686.0,11578.0,14470.0,21700.0,28930.0,43390.0,87975.0,18907.0,19123.0,19339.0,19555.0,19771.0,19987.0,20203.0,20419.0,20851.0,21499.0,22795.0,24091.0,26035.0,28627.0,31219.0,37699.0,44179.0,57139.0,97099.0,11255.0,12115.0,13627.0,13855.0,14871.0,15777.0,16939.0,17185.0,18123.0,19779.0,21195.0,22395.0,24849.0,27763.0,30357.0,37105.0,43751.0,56771.0,97099.0,18105.0,18297.0,18489.0,18681.0,18873.0,19065.0,19257.0,19449.0,19833.0,20409.0,21561.0,22713.0,24441.0,26745.0,29049.0,34809.0,40569.0,52089.0,87609.0,87609.0,87609.0,87609.0,87609.0,87609.0,87609.0,87609.0,87609.0,87609.0,87609.0,87609.0,87609.0,87609.0,87609.0,87609.0,87609.0,87609.0,87609.0,87609.0
2,87613.0,734.0,974.0,1214.0,1454.0,1694.0,1934.0,2174.0,2414.0,2894.0,3614.0,5054.0,6494.0,8654.0,11534.0,14414.0,21614.0,28814.0,43214.0,87614.0,9858.0,10098.0,10338.0,10578.0,10818.0,11058.0,11298.0,11538.0,12018.0,12738.0,14178.0,15618.0,17778.0,20658.0,23538.0,30738.0,37938.0,52338.0,96738.0,6032.0,6594.0,7482.0,7728.0,8368.0,8953.0,9666.0,9921.0,10654.0,11878.0,13378.0,14770.0,17185.0,20226.0,23107.0,30441.0,37724.0,52154.0,96738.0,9421.0,9637.0,9853.0,10069.0,10285.0,10501.0,10717.0,10933.0,11365.0,12013.0,13309.0,14605.0,16549.0,19141.0,21733.0,28213.0,34693.0,47653.0,87613.0,87613.0,87613.0,87613.0,87613.0,87613.0,87613.0,87613.0,87613.0,87613.0,87613.0,87613.0,87613.0,87613.0,87613.0,87613.0,87613.0,87613.0,87613.0,87613.0
3,6.895580291748047,0.02094268798828125,0.021938323974609375,0.027925491333007812,0.043880462646484375,0.0448760986328125,0.04288673400878906,0.0608367919921875,0.05385398864746094,0.08975982666015625,0.08676910400390625,0.11967849731445312,0.16555404663085938,0.22539710998535156,0.2991962432861328,0.42386436462402344,0.8227996826171875,1.1718673706054688,2.3317718505859375,9.312129974365234,0.2513256072998047,0.3400897979736328,0.31316184997558594,0.28025054931640625,0.3989295959472656,0.36901092529296875,0.44281768798828125,0.5754585266113281,0.6692104339599609,0.8148212432861328,1.3414154052734375,1.7134227752685547,2.3377552032470703,2.946126937866211,3.8437328338623047,5.175176620483398,5.181158065795898,5.949104309082031,12.802803039550781,0.13463783264160156,0.1545867919921875,0.21442604064941406,0.2872295379638672,0.30718040466308594,0.32712745666503906,0.3749980926513672,0.3969402313232422,0.5106353759765625,0.6263256072998047,1.1479339599609375,1.4960002899169922,1.8141517639160156,3.2283878326416016,3.720062255859375,5.501306533813477,6.24232292175293,5.834413528442383,13.081060409545898,0.4876976013183594,0.5236015319824219,0.6063804626464844,0.7619647979736328,0.9095726013183594,1.0412178039550781,1.1539230346679688,1.356374740600586,1.439157485961914,1.8241233825683594,4.278863906860352,2.6718616485595703,6.9484405517578125,9.581409454345703,10.92755126953125,7.332416534423828,6.363004684448242,5.026575088500977,7.357856750488281,7.378293991088867,10.077081680297852,9.586393356323242,6.17350959777832,7.659538269042969,7.641204833984375,8.35451889038086,9.903064727783203,8.155216217041016,8.098367691040039,6.989374160766602,6.92793083190918,7.543031692504883,7.394247055053711,7.620643615722656,7.41777229309082,7.463068008422852,8.076427459716797,7.504955291748047
4,31043.298367859366,20258.99770148288,18037.177761175895,23928.097086846865,24622.12319952499,23625.75297729735,24056.5425766502,28700.322931644656,27926.478262738943,27472.277600717698,26603.214431646535,35494.48396617684,28104.09734222281,31230.285857359544,31686.952442241854,32257.09917848678,31081.31516169629,30837.66807218934,31002.165586819283,31329.140484273663,20258.997701482887,18037.17776117589,23928.097086846865,24622.12319952498,23625.752977297354,24056.542576650194,28700.322931644652,27926.478262738943,27459.225252950127,26605.335637987806,34280.37261358504,28559.057304793696,30928.353067283977,30825.27257952966,31209.675417847233,31227.09299466165,31605.526438393226,32087.362240774193,31043.298367859366,20258.99770148288,18037.1777611759,23928.097086846865,24622.123199524976,23625.75297729737,24056.542576650194,28700.322931644652,27926.478262738936,27459.22525295017,26605.335637987802,34280.372613584215,28559.057304793696,30928.35306728398,30825.272579529654,31209.675418066443,31227.092994318697,31605.526438393215,32087.362240774193,31043.298367859366,20258.99770148288,18037.17776117591,23928.097086846858,24622.123199524973,23625.752977297252,24056.5425766502,28700.322931644656,27926.478262738954,27459.225252950186,26605.335637987806,34280.37261358499,28559.057304793696,30928.3530672805,30825.272579529625,31209.675417854174,31227.092994374376,31605.526438393223,32087.362240774193,31043.298367859366,20258.997701482866,18019.697485003653,23928.097086846865,24622.123199524973,23274.991036872576,23698.45462025159,28700.322931644652,27926.478262738943,27472.277600717694,26603.214431646535,31168.627325052483,27733.749990258802,30825.794587491593,30028.887443462867,30975.709311401104,30667.115074138863,30812.46809677448,31242.26073950122,31043.298367859366
5,905.4580221101708,0.0,65.66190492419895,0.0,0.0,18.480186742286474,73.3009430816132,33.03864145722293,0.0,102.38198813895778,0.0,831.6191182281236,769.1849186549839,597.1951439446246,597.1839406483812,600.4975822689868,935.6157261451598,934.9714828199237,932.7400237732409,967.4922737060174,0.0,65.66190492419902,0.0,0.0,18.48018674228644,73.30094308161327,33.038641457222965,0.0,18.74310189927456,0.0,772.4871519643535,770.177406985552,572.4749700981757,565.8691462748444,607.944753145945,925.6679877339643,929.6845927087429,930.2737961771375,905.4580221101714,0.0,65.66190492419896,0.0,0.0,18.4801867422863,73.30094308161327,33.038641457222965,0.0,18.74310189933061,0.0,772.4871519644297,770.1774069855504,572.4749700981761,565.869146274845,607.9447531520243,925.6679876448129,929.6845927087447,930.2737961771365,905.4580221101714,0.0,65.66190492419881,0.0,0.0,18.48018674228748,73.30094308161317,33.03864145722291,0.0,18.743101899286355,0.0,772.4871519643448,770.1774069855492,572.474970098297,565.869146274846,607.9447531465952,925.667987659285,929.684592708744,930.2737961771365,905.4580221101708,161.12860387246667,65.8271132746498,0.0,0.0,22.168825264088923,68.53414351819549,33.038641457222894,40.33285330533916,137.06739588074532,134.6738063880144,763.4222729210665,586.1933500585681,565.8797620989643,571.3981918310914,600.4975822689871,938.4913839767677,935.1464381346013,931.0731204410552,905.4580221101706
6,121598.84507824968,87983.40009431946,91960.91937397375,78128.05401954499,78735.32303914259,94544.85666517029,109325.7234327285,112719.26592276462,112263.97211508514,101216.21839839818,104316.17803335917,101440.08427015916,112570.99118876942,112740.66900461762,122100.25146627788,125208.86987238596,127761.61711673724,123358.37901104524,120252.56852967729,122019.58293646757,87983.40009431946,91960.91937397375,78128.05401954499,78735.32303914259,94544.85666517029,109325.7234327285,112719.26592276462,112263.97211508514,100734.45823508907,104316.17803335917,101440.08427015916,113948.7691140991,110746.75607857497,122147.06267207288,123720.25898148092,124208.86414746556,122755.19782141777,119981.51881817778,121598.8450782497,87983.40009431946,91960.91937397375,78128.05401954499,78735.32303914259,94544.85666517029,109325.7234327285,112719.26592276462,112263.97211508514,100734.45823510566,104316.17803335917,101440.08427015916,113948.7691140991,110746.75607857693,122147.06267207288,123720.25898148092,124208.86414746556,122755.19782141777,119981.51881817778,121598.8450782497,87983.40009431946,91960.91937397375,78128.05401954499,78735.32303914259,94544.85666517029,109325.7234327285,112719.26592276462,112263.97211508514,100734.45823509268,104316.17803335917,101440.08427015916,113948.7691140991,110746.7560786062,122147.06267207288,123720.25898148092,124208.86414746556,122755.19782141777,119981.51881817778,121598.8450782497,87983.40009431944,91960.91937397377,80525.67202039858,78735.3230391426,94544.85666517026,107032.02195869855,112719.2659227646,112263.97211508514,99568.61582763815,104316.17803335917,104822.84425832574,113424.5065769445,110239.19898379057,122147.06267207288,123720.25898148092,125043.5291283057,122490.53707792745,119981.51881817778,121598.8450782497
7,338969.6030396784,331144.20784717647,346559.81399729266,388897.185638945,395501.8858323482,376746.73829415056,363831.16501306836,354959.8800721543,356527.93053329317,361004.45131817466,355476.61980820086,366476.900570979,352884.7178403083,352298.8014783702,341526.1419791113,336810.28369733,335803.67699303955,340888.1206038592,342854.6697700629,341371.967574359,331144.2078471766,346559.81399729266,388897.18563896866,395501.8858323668,376746.73829417175,363831.16501306853,354959.88007216324,356527.9305332989,360585.4058363934,355303.39361763804,366720.0585556333,349772.1747068997,353200.5333542292,339901.9465367894,337408.9146547161,337338.16911606287,338982.48228390794,340395.674359194,338969.6030415958,331144.2078471764,346559.81399729266,388897.18563896755,395501.885832368,376746.73829416843,363831.16501306853,354959.8800721863,356527.9305332933,360585.40583636984,355303.3936176306,366720.05855567806,349772.17470690014,353200.5333542245,339901.94653676887,337408.914654567,337338.1691155836,338982.48228389956,340395.6743592021,338969.6030415958,331144.20784717647,346559.81399729266,388897.1856389451,395501.88583234855,376746.73829415085,363831.16501307656,354959.8800721678,356527.93053329433,360585.4058364001,355303.3936176368,366720.05855562317,349772.17470689694,353200.5333541222,339901.9465368967,337408.91465468926,337338.1691156471,338982.48228388594,340395.6743592249,338969.60303967504,323594.35672257765,342395.4102689388,381780.8813108637,389757.99464563356,371316.38371831557,360638.6897060473,348795.58448676695,350545.9324041792,357893.20857073227,351526.3643737811,361740.59194437496,346743.078042751,350678.47331529483,338106.616589016,335384.5486727011,335433.6065426774,338513.1215537242,340215.51136940584,338969.6030396817
8,11788.17210981721,14692.073849841923,12741.903643722411,12271.141839189817,12678.08246228771,12273.205215292279,12529.543452412181,14173.85436112209,13747.075224362878,13496.581327794454,13017.288720390574,9054.11530505033,11552.10898678317,11875.601962189865,11759.897021088118,11721.344306549216,11807.519847775962,11706.159884932506,11588.633231707867,11204.454970013732,14692.073849841927,12741.90364372241,12271.14183918982,12678.082462287712,12273.205215292282,12529.543452412177,14173.854361122096,13747.075224362885,14050.12245419669,13148.791491121441,9998.813991538776,11447.281349421268,12193.71499788293,12224.404807025016,11985.910721701784,11852.175602216143,11512.208264847597,11314.525846271903,11788.17210981721,14692.073849841925,12741.90364372241,12271.141839189822,12678.08246228771,12273.205215292272,12529.543452412188,14173.85436112208,13747.07522436288,14050.122454194761,13148.79149112145,9998.813991538973,11447.281349421271,12193.714997882302,12224.404807025014,11985.910721646413,11852.17560313738,11512.208264847595,11314.525846271907,11788.17210981721,14692.073849841921,12741.90364372241,12271.141839189824,12678.082462287695,12273.205215292424,12529.543452412141,14173.854361122063,13747.075224362847,14050.122454194654,13148.791491121474,9998.81399153887,11447.28134942128,12193.714997962059,12224.40480702501,11985.910721700004,11852.175602987832,11512.208264847593,11314.525846271905,11788.17210981721,14692.07384984191,12746.318947419497,12271.141839189817,12678.082462287713,12604.917448133137,12868.183828920977,14173.85436112209,13747.075224362878,13496.581327794456,13017.288720390576,10643.993201671694,13173.96861912105,12224.634139428534,12425.56193983756,12045.00769503363,11912.141717585404,11712.525090122592,11527.988136353359,11788.17210981721
