,0,1,2,3,4,5,6,7,8,9,10,11,12,13,14,15,16,17,18,19,20,21,22,23,24,25,26,27,28,29,30,31,32,33,34,35,36,37,38,39,40,41,42,43,44,45,46,47,48,49,50,51,52,53,54,55,56,57,58,59,60,61,62,63,64,65,66,67,68,69,70,71,72,73,74,75,76,77,78,79,80,81,82,83,84,85,86,87,88,89,90,91,92,93,94,95
0,417017.24934356223,403396.72455868294,411423.3159847155,418520.91806251445,416800.2984952253,417213.4859807321,419361.0297301143,418838.8916893148,418510.4798137746,418087.21877623594,419365.790055429,418404.1991206495,419135.7866609468,419680.4874307288,419702.7343740366,419967.0819954503,419737.0094098102,419637.43708171585,419564.6171505378,419442.25702736515,403396.7245586829,411423.3159847155,418520.9180625145,416800.29849522526,417213.48598073213,419301.853539872,416949.41351870075,416493.40025871753,411394.7222367201,417888.3672229401,416549.47544268426,416948.1365096509,417529.01238255406,417525.95774443704,417631.60830791935,417247.90222658153,417162.5494738392,417138.67074117676,417017.24934356223,403396.7245586829,411423.3159847155,418520.9180625145,416800.29849522526,417213.48598073213,419301.8535398719,416949.41351870075,416493.4002587175,411394.72223672003,417888.3672229401,416549.4754426843,416948.1365096509,417529.0123825542,417525.957744437,417631.60830791935,417247.9022265815,417162.5494738392,417138.6707411235,417017.24934356223,403396.7245586828,411423.3159847155,418520.91806251445,416800.29849522555,417213.485980732,419301.853539872,416949.4135187006,416493.4002587176,411394.72223672015,417888.36722294,416549.4754426844,416948.1365096509,417529.0123825542,417525.957744437,417631.60830791947,417247.9022265815,417162.54947383923,417138.6707410881,417017.24934356223,403396.72455868096,410485.5416350461,407838.0864437831,406666.21983639506,407978.711092553,409378.38578582514,409539.5449863457,410427.63423581165,410178.702461644,416581.28559768986,415760.8650676265,416495.2604071482,417102.3180278971,417077.917368362,417253.57533485966,417149.54488981597,417121.0412965193,417138.61764508724,417017.24934356223
1,87607.0,731.0,972.0,1213.0,1454.0,1695.0,1936.0,2177.0,2418.0,2900.0,3623.0,5069.0,6515.0,8684.0,11576.0,14468.0,21698.0,28928.0,43388.0,87973.0,18905.0,19121.0,19337.0,19553.0,19769.0,19985.0,20201.0,20417.0,20849.0,21497.0,22793.0,24089.0,26033.0,28625.0,31217.0,37697.0,44177.0,57137.0,97097.0,11995.0,13255.0,13505.0,13275.0,13511.0,14377.0,14843.0,15075.0,15859.0,16807.0,19281.0,21431.0,23833.0,27677.0,30177.0,36869.0,43409.0,56533.0,97097.0,18103.0,18295.0,18487.0,18679.0,18871.0,19063.0,19255.0,19447.0,19831.0,20407.0,21559.0,22711.0,24439.0,26743.0,29047.0,34807.0,40567.0,52087.0,87607.0,87607.0,87607.0,87607.0,87607.0,87607.0,87607.0,87607.0,87607.0,87607.0,87607.0,87607.0,87607.0,87607.0,87607.0,87607.0,87607.0,87607.0,87607.0,87607.0
2,87610.0,731.0,971.0,1211.0,1451.0,1691.0,1931.0,2171.0,2411.0,2891.0,3611.0,5051.0,6491.0,8651.0,11531.0,14411.0,21611.0,28811.0,43211.0,87611.0,9855.0,10095.0,10335.0,10575.0,10815.0,11055.0,11295.0,11535.0,12015.0,12735.0,14175.0,15615.0,17775.0,20655.0,23535.0,30735.0,37935.0,52335.0,96735.0,6400.0,7162.0,7419.0,7436.0,7686.0,8251.0,8616.0,8864.0,9520.0,10390.0,12419.0,14286.0,16675.0,20181.0,23015.0,30321.0,37551.0,52033.0,96735.0,9418.0,9634.0,9850.0,10066.0,10282.0,10498.0,10714.0,10930.0,11362.0,12010.0,13306.0,14602.0,16546.0,19138.0,21730.0,28210.0,34690.0,47650.0,87610.0,87610.0,87610.0,87610.0,87610.0,87610.0,87610.0,87610.0,87610.0,87610.0,87610.0,87610.0,87610.0,87610.0,87610.0,87610.0,87610.0,87610.0,87610.0,87610.0
3,3.2333602905273438,0.027927398681640625,0.020954132080078125,0.037899017333984375,0.04188728332519531,0.052860260009765625,0.06482315063476562,0.07380294799804688,0.06382942199707031,0.07280540466308594,0.09539604187011719,0.11170196533203125,0.12865257263183594,0.1795196533203125,0.2044506072998047,0.3101692199707031,0.42087364196777344,0.6382923126220703,1.0122909545898438,2.704774856567383,0.18949317932128906,0.33709716796875,0.31914710998535156,0.37998390197753906,0.3759956359863281,0.3949413299560547,0.4428119659423828,0.40990257263183594,0.42685699462890625,0.6143569946289062,0.7619647979736328,0.7938766479492188,1.0402183532714844,1.3404178619384766,1.4371604919433594,1.5378894805908203,1.379312515258789,1.8490619659423828,2.850381851196289,0.12665748596191406,0.16456031799316406,0.2313823699951172,0.209442138671875,0.27226829528808594,0.2483348846435547,0.3011951446533203,0.3031883239746094,0.3111686706542969,0.4727363586425781,0.6622295379638672,0.7549800872802734,0.7709369659423828,1.2735958099365234,1.5319023132324219,1.3912792205810547,1.4670791625976562,1.6974639892578125,3.0009822845458984,0.3949432373046875,0.5216045379638672,0.6123600006103516,0.543548583984375,0.5794525146484375,0.6073741912841797,0.6372928619384766,0.6572399139404297,0.5575065612792969,0.9584388732910156,1.0132942199707031,1.3075122833251953,1.5777816772460938,2.662881851196289,2.040546417236328,2.0275802612304688,1.6705322265625,1.7812385559082031,2.863353729248047,1.9597606658935547,1.4830379486083984,2.1243228912353516,1.9856948852539062,2.202116012573242,2.0824356079101562,2.108369827270508,2.7396812438964844,2.465412139892578,2.132303237915039,2.5242576599121094,2.6997852325439453,2.6429367065429688,2.492341995239258,2.5292415618896484,2.4005870819091797,2.370668411254883,2.9291744232177734,3.0408763885498047
4,81026.56600000005,80824.4710241904,83542.01688154932,82068.09326153967,82007.12335529535,82114.70098439537,81729.90593212677,81318.41871611706,81169.84032341099,80772.43624631743,80810.79001105293,81084.61552429407,81138.74853365672,81087.94574491066,81021.5528744338,81076.43746197717,81069.35923401115,81039.7234929032,81026.49212910091,81026.56600000005,80824.4710241904,83542.01688154932,82068.0932615397,82007.12335529535,82114.70098439539,81729.90593212677,81318.41871611706,81169.84032341099,80772.43624631743,80810.79001105293,81084.61552429407,81138.74853365669,81087.94574491066,81021.5528744338,81076.43746197717,81069.35923401112,81039.7234929032,81026.49212910088,81026.56600000005,80824.4710241904,83542.01688154932,82068.0932615397,82007.12335529535,82114.70098439539,81729.90593212677,81318.41871611706,81169.84032341099,80772.43624631743,80810.79001105293,81084.61552429407,81138.74853365669,81087.94574491066,81021.5528744338,81076.43746197717,81069.35923401112,81039.7234929032,81026.49212910088,81026.56600000005,80824.4710241904,83542.01688154935,82068.09326153967,82007.12335529535,82114.70098439539,81729.90593212677,81318.41871611706,81169.84032341099,80772.43624631743,80810.79001105293,81084.61552429407,81138.74853365669,81087.94574491066,81021.55287443376,81076.43746197717,81069.35923401112,81039.72349290323,81026.49212910091,81026.56600000005,80824.47102419041,83542.01688154935,80751.31651700863,82007.12335529536,82114.70098440273,81729.9059321268,81318.41871611706,81169.840323411,80772.43624626193,80810.79001105293,81084.6155242941,81138.7485336567,81087.94574491066,81021.5528744338,81076.43746197717,81069.35923401115,81039.7234929032,81026.49212910091,81026.56600000005
5,6200.132528918355,0.0,366.48436329479074,5541.736755681537,5528.123896199574,5642.321206616845,5662.053099435234,5638.012192702141,5612.706312978643,5703.504526994541,6370.644141207555,6321.829241805583,6336.833911719556,6403.268042416405,6610.587152472115,6644.946262882146,6639.501453811674,6610.64055673437,6621.260474581831,6580.822373400278,0.0,366.48436329479114,5541.736755681537,5528.123896199574,5642.321206616845,5673.442292575749,5596.6683984453475,5575.726920871667,459.65441824804725,5936.124424280631,5904.803898480859,5977.709305644974,6155.0388765973685,6275.887436905075,6304.396433978414,6223.895091272124,6238.009506898527,6217.01200074121,6200.132528918354,0.0,366.48436329479114,5541.736755681537,5528.123896199574,5642.321206616845,5673.442292575749,5596.668398445348,5575.72692087167,459.6544182480499,5936.124424280631,5904.803898480858,5977.709305644973,6155.038876597369,6275.8874369050745,6304.396433978414,6223.895091272125,6238.009506898527,6217.012000734406,6200.132528918354,0.0,366.4843632947906,5541.736755681537,5528.12389619958,5642.321206616854,5673.442292575745,5596.66839844534,5575.726920871647,459.6544182480531,5936.12442428063,5904.803898480848,5977.709305644984,6155.038876597368,6275.887436905081,6304.396433978426,6223.895091272121,6238.0095068985265,6217.01200074121,6200.132528918355,0.0,366.4843632947907,438.4892664256103,426.19586098892546,433.1201727536445,490.69556333430177,419.2660043804451,417.33498244583114,388.33197605539186,5936.813289834378,5828.451303308564,5908.4598510159,6128.695606421841,6156.063873115349,6156.308470519177,6275.921087103945,6238.0095068985265,6211.30144733763,6200.132528918355
6,266336.96900036285,250141.9954178707,260921.68009625646,263668.22728438117,264071.9764632581,264936.22109346493,265889.7075911369,267688.1429603157,268289.8821035593,269738.76560291275,272358.27263935574,271572.5413068556,272881.77601624205,271855.98829171003,271106.7690631586,271501.68760648055,271342.704624416,271313.5756598494,271440.341213067,271149.95961541845,250141.9954178707,260921.68009625646,263668.22728438117,264071.97646325815,264936.221093465,265819.14220775396,265840.0085839584,266309.7819406093,262457.78375654225,264244.862448281,264999.11192025134,266550.30787956703,267078.5304757185,266830.49537721643,267030.02039960335,266246.59093904315,266501.25615153974,266478.63381732564,266336.96900036285,250141.9954178707,260921.68009625646,263668.22728438117,264071.97646325815,264936.22109346493,265819.14220775396,265840.0085839584,266309.7819406092,262457.78375654225,264244.86244828097,264999.11192025134,266550.307879567,267078.5304757185,266830.49537721643,267030.0203996034,266246.59093904315,266501.2561515397,266478.633817314,266336.96900036285,250141.9954178707,260921.68009625646,263668.22728438117,264071.9764632588,264936.2210934647,265819.1422077542,265840.0085839582,266309.78194060916,262457.7837565423,264244.8624482809,264999.11192025157,266550.3078795671,267078.5304757185,266830.4953772164,267030.0203996035,266246.59093904315,266501.2561515409,266478.6338172583,266336.96900036285,250141.99541787137,259983.9057465863,256242.56140761223,258880.14897373653,260760.70000782618,261019.47269305476,262533.867059384,264356.38154948165,261313.08642355615,264506.8825915928,264286.8541403606,265865.13494303374,266182.44887099706,265630.8283705863,265723.0644878524,266474.58113117894,266459.747974213,266442.7596868134,266336.96900036285
7,46942.8416955,50826.669048322125,45090.54155688119,45173.74811994616,44659.53488465356,44699.68649204747,45520.648580484616,46800.623479637245,46719.940314001746,47947.17447392905,47761.45026789007,46555.14121225081,46585.31581662736,46986.76368428085,46939.47482148083,46978.210826970106,46973.19090644684,46952.17306614509,46942.78908057841,46942.8416955,50826.669048322125,45090.54155688119,45173.74811994612,44659.53488465356,44699.68649204747,45520.648580484616,46800.623479637245,46719.940314001746,47947.17447392905,47761.45026789007,46555.14121225081,46585.315816627444,46986.76368428085,46939.47482148083,46978.210826970106,46973.190906446885,46952.17306614509,46942.789080578455,46942.8416955,50826.669048322125,45090.54155688119,45173.74811994612,44659.53488465356,44699.68649204747,45520.648580484616,46800.623479637245,46719.940314001746,47947.17447392905,47761.45026789007,46555.14121225081,46585.315816627444,46986.76368428085,46939.47482148083,46978.210826970106,46973.190906446885,46952.17306614509,46942.789080578455,46942.8416955,50826.669048322125,45090.541556881115,45173.74811994613,44659.53488465356,44699.68649204747,45520.648580484616,46800.623479637245,46719.940314001746,47947.17447392905,47761.45026789007,46555.14121225081,46585.315816627444,46986.76368428085,46939.474821480944,46978.210826970106,46973.190906446885,46952.173066145,46942.78908057841,46942.8416955,50826.66904832217,45090.541556881195,48717.93747090893,44659.534884653505,44699.68649208541,45520.6485804852,46800.62347963703,46719.94031400142,47947.17447397281,47761.45026789078,46555.141212251154,46585.31581662677,46986.76368428085,46939.47482148065,46978.21082697046,46973.1909064469,46952.17306614517,46942.78908057832,46942.8416955
8,16510.7401187861,21603.589068299625,21502.593086733767,22069.112640966046,20533.539895818532,19820.556204207525,20558.714526930762,17393.694340542876,16718.110759823634,13925.337926082062,12064.632995922642,12870.071835443461,12193.112382700916,13346.521667411234,14024.350462490862,13765.79983713984,13712.253191123678,13721.324306083321,13533.734253208617,13742.067343051142,21603.58906829961,21502.593086733763,22069.112640966043,20533.539895818507,19820.556204207496,20558.714526930748,17393.694340542865,16718.11075982362,19757.67334168311,19135.140071435213,18005.80288740725,16696.054974154533,16220.733601047146,16458.547234400543,16242.543185389928,16734.866055807342,16431.38725635207,16473.743713386357,16510.7401187861,21603.58906829961,21502.593086733763,22069.112640966043,20533.539895818507,19820.556204207525,20558.714526930744,17393.69434054286,16718.1107598236,19757.6733416831,19135.14007143526,18005.802887407262,16696.054974154544,16220.733601047135,16458.547234400554,16242.54318538992,16734.86605580734,16431.38725635207,16473.743713395077,16510.7401187861,21603.589068299625,21502.593086733767,22069.11264096604,20533.539895818118,19820.55620420761,20558.714526930657,17393.694340542916,16718.110759823747,19757.673341683105,19135.14007143523,18005.80288740715,16696.05497415454,16220.733601047179,16458.54723440051,16242.543185389839,16734.866055807364,16431.387256352078,16473.743713386357,16510.7401187861,21603.58906829962,21502.59308673377,21687.781781822014,20693.216761720494,19970.503435590595,20617.663016834224,18467.369726823435,17764.137066462245,19757.67334168323,17565.349437311874,18005.802887407273,16997.601262821823,16716.46412128349,17329.997428738225,17319.55408753678,16356.49253106545,16431.38725635207,16515.275301256457,16510.7401187861
