,0,1,2,3,4,5,6,7,8,9,10,11,12,13,14,15,16,17,18,19,20,21,22,23,24,25,26,27,28,29,30,31,32,33,34,35,36,37,38,39,40,41,42,43,44,45,46,47,48,49,50,51,52,53,54,55,56,57,58,59,60,61,62,63,64,65,66,67,68,69,70,71,72,73,74,75,76,77,78,79,80,81,82,83,84,85,86,87,88,89,90,91,92,93,94,95
0,504305.3766177205,454078.67949282075,469365.4766810889,503224.4785845267,511537.4145333033,507209.033338653,509816.27541794087,510586.3619291428,510465.4561354803,503291.9106332238,499413.30099359737,513297.2032305488,505881.10027673875,508742.55344648333,507670.42684939195,506598.0946370308,506888.8370066228,507234.8094449365,506630.7771420406,506892.6382388099,454078.67949282075,469365.47668108885,503224.4785845617,511537.4145333037,507209.0333386708,509816.2754179592,510586.36192917847,510465.4561354861,502847.95488052734,499373.69878009905,513211.816582834,504497.45988220425,507641.83246806107,505664.5557416924,504932.70452889387,505062.7561672012,505299.8525690097,504709.3550606258,504305.3766196377,454078.67949282075,469365.47668108885,503224.47858452675,511537.41453330335,507209.0333386532,509816.27541794087,510586.3619291587,510465.45613548043,502847.95488055656,499373.6987801295,513211.8165828226,504497.4598822077,507641.8324680644,505664.55574166344,504932.7045288924,505062.756167293,505299.8525690559,504709.35506059707,504305.3766196377,454078.6794928207,469365.47668108885,503224.4785845325,511537.41453330836,507209.033338653,509816.27541794087,510586.36192917736,510465.4561354972,502847.9548805465,499373.69878011843,513211.8165829096,504497.45988220896,507641.8324680902,505664.5557416764,504932.70452888525,505062.7561672711,505299.8525690362,504709.35506061744,504305.37661771534,446689.9569720995,465188.17318861093,498505.79225730523,505793.52334660274,501763.3176937607,504305.88425743364,504422.06634376023,504523.7908596689,498567.750722762,495597.7193655664,509139.4790023387,501661.4965791366,504533.9807881133,503279.52683620667,502726.0222428776,503994.8838466872,504463.7982566843,503898.35218389216,504305.37661771395
1,87609.0,733.0,974.0,1215.0,1456.0,1697.0,1938.0,2179.0,2420.0,2902.0,3625.0,5071.0,6517.0,8686.0,11578.0,14470.0,21700.0,28930.0,43390.0,87975.0,18907.0,19123.0,19339.0,19555.0,19771.0,19987.0,20203.0,20419.0,20851.0,21499.0,22795.0,24091.0,26035.0,28627.0,31219.0,37699.0,44179.0,57139.0,97099.0,11255.0,12115.0,13627.0,13855.0,14871.0,15777.0,16939.0,17185.0,18123.0,19779.0,21195.0,22395.0,24849.0,27763.0,30357.0,37105.0,43751.0,56771.0,97099.0,18105.0,18297.0,18489.0,18681.0,18873.0,19065.0,19257.0,19449.0,19833.0,20409.0,21561.0,22713.0,24441.0,26745.0,29049.0,34809.0,40569.0,52089.0,87609.0,87609.0,87609.0,87609.0,87609.0,87609.0,87609.0,87609.0,87609.0,87609.0,87609.0,87609.0,87609.0,87609.0,87609.0,87609.0,87609.0,87609.0,87609.0,87609.0
2,87613.0,734.0,974.0,1214.0,1454.0,1694.0,1934.0,2174.0,2414.0,2894.0,3614.0,5054.0,6494.0,8654.0,11534.0,14414.0,21614.0,28814.0,43214.0,87614.0,9858.0,10098.0,10338.0,10578.0,10818.0,11058.0,11298.0,11538.0,12018.0,12738.0,14178.0,15618.0,17778.0,20658.0,23538.0,30738.0,37938.0,52338.0,96738.0,6032.0,6594.0,7482.0,7728.0,8368.0,8953.0,9666.0,9921.0,10654.0,11878.0,13378.0,14770.0,17185.0,20226.0,23107.0,30441.0,37724.0,52154.0,96738.0,9421.0,9637.0,9853.0,10069.0,10285.0,10501.0,10717.0,10933.0,11365.0,12013.0,13309.0,14605.0,16549.0,19141.0,21733.0,28213.0,34693.0,47653.0,87613.0,87613.0,87613.0,87613.0,87613.0,87613.0,87613.0,87613.0,87613.0,87613.0,87613.0,87613.0,87613.0,87613.0,87613.0,87613.0,87613.0,87613.0,87613.0,87613.0
3,10.298879623413086,0.021005630493164062,0.0600128173828125,0.025007247924804688,0.027574539184570312,0.037006378173828125,0.04501152038574219,0.047054290771484375,0.052021026611328125,0.06701850891113281,0.10131072998046875,0.12002754211425781,0.18102645874023438,0.2784309387207031,0.4065971374511719,0.5071125030517578,1.278341293334961,1.6027259826660156,3.3755931854248047,11.583024978637695,0.24492645263671875,0.2864646911621094,0.35349082946777344,0.36028099060058594,0.6393775939941406,0.6522846221923828,0.83489990234375,0.8232002258300781,0.7441558837890625,1.016469955444336,1.5803718566894531,1.9695568084716797,2.6067848205566406,3.3996658325195312,4.105138778686523,5.376197814941406,6.24339485168457,7.564456939697266,13.805099487304688,0.13902664184570312,0.1920299530029297,0.22105026245117188,0.25103759765625,0.340057373046875,0.510101318359375,0.6161289215087891,0.7131500244140625,0.8431797027587891,1.0152149200439453,1.5087528228759766,1.8100337982177734,2.5748062133789062,2.880695343017578,3.798978805541992,5.691806793212891,7.418682098388672,5.852298736572266,13.65802001953125,0.5371017456054688,0.7931671142578125,0.8662052154541016,0.9962139129638672,1.224273681640625,1.3582839965820312,1.642354965209961,1.3563060760498047,1.9347496032714844,2.0910797119140625,3.7603397369384766,4.374080657958984,7.153594970703125,17.78084373474121,6.853542327880859,6.267095565795898,7.159261703491211,6.207376480102539,8.86798095703125,9.869205474853516,8.522039413452148,9.444585800170898,8.900995254516602,9.038026809692383,8.804964065551758,9.190071105957031,9.9844970703125,9.81519889831543,10.759407043457031,7.977806091308594,6.691486358642578,7.9053802490234375,8.448854446411133,8.236837387084961,8.598936080932617,10.29969596862793,9.22207260131836,9.56130599975586
4,31043.298367859366,20258.99770148288,18037.1777611759,23928.097086846865,24622.123199524976,23625.75297729735,24056.5425766502,28700.322931644656,27926.478262738943,27472.277600717698,26603.21443164654,35494.48396617685,28104.09734222281,31230.28585735953,31686.952442241854,32257.09917848678,31039.734340308143,30796.802777318764,31002.165586819287,31329.140484273663,20258.99770148288,18037.1777611759,23928.097086846865,24622.12319952497,23625.75297729737,24056.54257665021,28700.322931644652,27926.478262738936,27459.22525295017,26605.335637987802,34280.372613587286,28559.057304793696,30928.353067281703,30825.272579529654,31209.675417329945,31183.378965727534,31498.63655268104,32087.36224077419,31043.298367859374,20258.99770148288,18037.177761175895,23928.09708684686,24622.12319952497,23625.752977297365,24056.542576650158,28700.322931644645,27926.478262738936,27459.225252950164,26605.335637987802,34280.372613587344,28559.057304793696,30928.353067283973,30825.272579529646,31209.675417344304,31183.378965517757,31498.63655275549,32087.362240774193,31043.298367859374,20258.99770148288,18037.177761175903,23928.097086846865,24622.123199524947,23625.752977297347,24056.5425766502,28700.32293164464,27926.478262738925,27459.225252950193,26605.335637987806,34280.37261358749,28559.057304793696,30928.35306728187,30825.27257952962,31209.6754173417,31183.37896577944,31498.636552841846,32087.362240774197,31043.298367859366,20258.997701482884,18019.697485003657,23928.097086846876,24622.123199524973,23274.991036872572,23698.454620251596,28700.32293164465,27926.478262738943,27472.27760071769,26603.214431646542,31168.62732505249,27733.7499902588,30825.794587491593,30028.887443462867,30975.709311401104,30667.115074138866,30812.46809677448,31242.260739501224,31043.298367859366
5,905.4580221101706,0.0,65.66190492419886,0.0,0.0,18.480186742286335,73.3009430816132,33.03864145722272,0.0,102.38198813896055,0.0,831.6191182281236,769.1849186549839,597.1951439446243,597.1839406483808,600.4975822689864,935.5031176675452,934.8607892220649,932.7400237732413,967.4922737060173,0.0,65.6619049241989,0.0,0.0,18.48018674228616,73.30094308161308,33.03864145722275,0.0,18.74310189928871,0.0,772.4871519643141,770.1774069855508,572.4749700982546,565.8691462748445,607.9447531294111,925.3995937115733,929.9881833167666,930.2737961771356,905.4580221101703,0.0,65.66190492419891,0.0,0.0,18.480186742286197,73.30094308161365,33.03864145722286,0.0,18.743101899286184,0.0,772.48715196431,770.1774069855508,572.4749700981757,565.8691462748452,607.9447531323364,925.3995936931265,929.9881833162494,930.2737961771359,905.4580221101703,0.0,65.66190492419885,0.0,0.0,18.48018674228636,73.30094308161317,33.03864145722286,0.0,18.743101899286184,0.0,772.4871519643139,770.1774069855497,572.4749700982493,565.8691462748461,607.9447531318058,925.3995937159049,929.9881833156497,930.273796177135,905.4580221101706,161.12860387246667,65.82711327464979,0.0,0.0,22.168825264089026,68.53414351819553,33.038641457222965,40.332853305339086,137.06739588074538,134.6738063880143,763.4222729210662,586.1933500585677,565.8797620989644,571.3981918310919,600.4975822689867,938.4913839767672,935.1464381346013,931.0731204410549,905.4580221101706
6,121598.84507824968,87983.40009431947,91960.91937397371,78128.054019545,78735.3230391426,94544.85666517031,109325.72343272853,112719.26592276462,112263.97211508517,101216.21839839817,104316.17803335922,101440.08427015916,112570.99118876949,112740.66900461768,122100.25146627791,125208.86987238597,127439.33008581714,123997.45166093005,120252.56852967726,122019.58293646757,87983.40009431947,91960.91937397371,78128.054019545,78735.3230391426,94544.85666517031,109325.72343272853,112719.26592276462,112263.97211508517,100734.45823509335,104316.17803335922,101440.08427015916,113948.76911409911,110746.75607854003,122147.06267207293,123720.25898148095,123895.44859712594,122787.33409882385,119981.51881817778,121598.8450782497,87983.40009431947,91960.91937397371,78128.054019545,78735.3230391426,94544.85666517031,109325.72343272853,112719.26592276462,112263.97211508517,100734.45823509258,104316.17803335922,101440.08427015916,113948.76911409911,110746.756078575,122147.06267207293,123720.25898148095,123895.44859712594,122787.33409882385,119981.51881817778,121598.8450782497,87983.40009431947,91960.91937397371,78128.054019545,78735.3230391426,94544.85666517031,109325.72343272853,112719.26592276462,112263.97211508517,100734.45823509265,104316.17803335922,101440.08427015916,113948.7691140991,110746.75607853415,122147.06267207293,123720.25898148095,123895.44859712594,122787.33409882385,119981.51881817778,121598.8450782497,87983.40009431946,91960.91937397375,80525.6720203986,78735.32303914259,94544.85666517029,107032.02195869855,112719.2659227646,112263.97211508511,99568.61582763813,104316.17803335917,104822.84425832577,113424.5065769445,110239.19898379059,122147.06267207286,123720.25898148092,125043.5291283057,122490.53707792742,119981.51881817778,121598.8450782497
7,338969.6030396818,331144.20784717647,346559.8139972927,388897.185638945,395501.88583234814,376746.73829415056,363831.16501306836,354959.8800721543,356527.9305332932,361004.45131817466,355476.61980820086,366476.9005709345,352884.7178403083,352298.80147837155,341526.14197913615,336810.28369733965,335684.233353654,339816.7188062564,342854.66977006383,341371.96757434745,331144.20784717647,346559.8139972927,388897.18563898,395501.8858323486,376746.7382941683,363831.1650130867,354959.88007218996,356527.93053329893,360585.4058363899,355303.3936176306,366720.0585555861,349772.17470690457,353200.53335418116,339901.94653679023,337408.914655121,337221.7427912665,338572.19293995627,340395.67435922433,338969.6030415988,331144.2078471764,346559.8139972927,388897.185638945,395501.8858323482,376746.73829415085,363831.16501306824,354959.88007217017,356527.9305332933,360585.40583641984,355303.39361766115,366720.0585555746,349772.17470690794,353200.5333542242,339901.9465367613,337408.9146551056,337221.7427913524,338572.1929399472,340395.67435919563,338969.6030415988,331144.20784717647,346559.81399729266,388897.1856389508,395501.88583235326,376746.73829415074,363831.16501306824,354959.8800721891,356527.93053331005,360585.40583640995,355303.39361764985,366720.05855566164,349772.1747069093,353200.53335421596,339901.9465367741,337408.914655101,337221.7427913362,338572.1929398635,340395.6743592157,338969.60303967656,323594.35672257823,342395.4102689373,381780.881310875,389757.994645637,371316.38371831545,360638.689706047,348795.5844867683,350545.9324041789,357893.20857072936,351526.36437378125,361740.59194437217,346743.0780427485,350678.47331530706,338106.6165890041,335384.5486726918,335433.6065426802,338513.12155372725,340215.51136941893,338969.60303967504
8,11788.17210981721,14692.073849841923,12741.90364372241,12271.141839189817,12678.08246228771,12273.205215292279,12529.543452412181,14173.85436112209,13747.075224362878,13496.581327794454,13017.288720390576,9054.115305050334,11552.10898678317,11875.601962189863,11759.897021088113,11721.34430654922,11790.036109176104,11688.975411208927,11588.633231707863,11204.454970013732,14692.073849841923,12741.903643722411,12271.14183918982,12678.082462287706,12273.205215292273,12529.543452412176,14173.854361122085,13747.07522436288,14050.122454194752,13148.791491121441,9998.813991537243,11447.28134942127,12193.714997959782,12224.40480702501,11985.910721832448,11836.786219369706,11511.700794231348,11314.525846271907,11788.172109817211,14692.07384984192,12741.90364372241,12271.14183918982,12678.082462287706,12273.205215292273,12529.543452412221,14173.854361122094,13747.075224362885,14050.122454194763,13148.791491121443,9998.81399153723,11447.28134942127,12193.714997882915,12224.404807025014,11985.910721828819,11836.786219604182,11511.700794212544,11314.525846271905,11788.172109817211,14692.073849841929,12741.90364372238,12271.141839189822,12678.082462287719,12273.205215292312,12529.543452412252,14173.85436112183,13747.075224362901,14050.122454194621,13148.791491121468,9998.813991537054,11447.281349421277,12193.714997959993,12224.404807025017,11985.910721829498,11836.786219313815,11511.700794190732,11314.525846271907,11788.17210981721,14692.07384984192,12746.318947419493,12271.141839189817,12678.082462287712,12604.917448133137,12868.183828920975,14173.854361122092,13747.075224362876,13496.58132779446,13017.288720390576,10643.993201671692,13173.968619121051,12224.634139428534,12425.561939837555,12045.00769503363,11912.141717585402,11712.525090122592,11527.988136353359,11788.17210981721
