,0,1,2,3,4,5,6,7,8,9,10,11,12,13,14,15,16,17,18,19,20,21,22,23,24,25,26,27,28,29,30,31,32,33,34,35,36,37,38,39,40,41,42,43,44,45,46,47,48,49,50,51,52,53,54,55,56,57,58,59,60,61,62,63,64,65,66,67,68,69,70,71,72,73,74,75,76
0,504305.37661771727,454078.6794928207,469365.4766810889,503224.47858452675,511537.41453330335,507209.0333386529,509816.2754179408,510586.3619291428,510465.4561354802,503291.9106332238,499413.3009935973,513297.2032305933,505881.1002767387,508742.55344648194,507670.42684936704,506598.09463702113,507389.74484539416,507725.2990548463,506630.77714203985,506892.63823882147,454078.6794928207,469365.4766810888,503224.47858452675,511537.41453330335,507209.0333386529,509816.2754179432,510586.36192915065,510465.45613548125,502847.95488053805,499373.69878009846,513211.81658295804,504497.4598822036,507641.8324680794,505664.55574167165,504932.70452888,505551.9698481727,505785.0994012489,504709.35506059777,504305.3766196363,454078.67949282064,469365.47668108885,503224.4785845722,511537.41453330335,507209.0333386529,509816.2754179731,510586.3619291802,510465.4561354856,502847.9548805508,499373.69878010475,513211.8165828726,504497.4598822223,507641.8324680969,505664.5557417436,504932.70452889137,505551.96984814847,505785.0994012552,504709.35506062704,504305.3766196363,446689.95697209897,465188.1731886127,498505.7922572935,505793.5233465995,501763.3176937609,504305.8842574336,504422.066343759,504523.7908596691,498567.75072276534,495597.71936556615,509139.47900234157,501661.496579139,504533.9807881012,503279.5268362189,502726.0222428868,503994.88384668453,504463.79825668124,503898.3521838789,504305.37661772047
1,87609.0,733.0,974.0,1215.0,1456.0,1697.0,1938.0,2179.0,2420.0,2902.0,3625.0,5071.0,6517.0,8686.0,11578.0,14470.0,21700.0,28930.0,43390.0,87975.0,18907.0,19123.0,19339.0,19555.0,19771.0,19987.0,20203.0,20419.0,20851.0,21499.0,22795.0,24091.0,26035.0,28627.0,31219.0,37699.0,44179.0,57139.0,97099.0,11255.0,12115.0,13627.0,13855.0,14871.0,15777.0,16939.0,17185.0,18123.0,19779.0,21195.0,22395.0,24849.0,27763.0,30357.0,37105.0,43751.0,56771.0,97099.0,87609.0,87609.0,87609.0,87609.0,87609.0,87609.0,87609.0,87609.0,87609.0,87609.0,87609.0,87609.0,87609.0,87609.0,87609.0,87609.0,87609.0,87609.0,87609.0
2,87613.0,734.0,974.0,1214.0,1454.0,1694.0,1934.0,2174.0,2414.0,2894.0,3614.0,5054.0,6494.0,8654.0,11534.0,14414.0,21614.0,28814.0,43214.0,87614.0,9858.0,10098.0,10338.0,10578.0,10818.0,11058.0,11298.0,11538.0,12018.0,12738.0,14178.0,15618.0,17778.0,20658.0,23538.0,30738.0,37938.0,52338.0,96738.0,6032.0,6594.0,7482.0,7728.0,8368.0,8953.0,9666.0,9921.0,10654.0,11878.0,13378.0,14770.0,17185.0,20226.0,23107.0,30441.0,37724.0,52154.0,96738.0,87613.0,87613.0,87613.0,87613.0,87613.0,87613.0,87613.0,87613.0,87613.0,87613.0,87613.0,87613.0,87613.0,87613.0,87613.0,87613.0,87613.0,87613.0,87613.0
3,7.796180725097656,0.015954971313476562,0.016954421997070312,0.023935317993164062,0.027925491333007812,0.02892303466796875,0.03490638732910156,0.03889656066894531,0.041889190673828125,0.07380485534667969,0.07081222534179688,0.1077117919921875,0.1545867919921875,0.22838783264160156,0.31017112731933594,0.4408226013183594,0.8148250579833984,1.1818408966064453,2.5043106079101562,9.386938095092773,0.19746971130371094,0.27227210998535156,0.37699127197265625,0.3789863586425781,0.39295196533203125,0.4747295379638672,0.49567413330078125,0.5345726013183594,0.6283206939697266,0.8786544799804688,1.419210433959961,1.4032535552978516,2.784564971923828,2.931173324584961,4.057167053222656,4.907894134521484,5.740673065185547,4.719396591186523,13.310461044311523,0.17552947998046875,0.17353439331054688,0.23637008666992188,0.215423583984375,0.2652931213378906,0.3580436706542969,0.4328441619873047,0.4667530059814453,0.6143569946289062,0.6961402893066406,1.1678791046142578,1.277587890625,2.242013931274414,3.0937347412109375,3.1276493072509766,4.695461273193359,5.04054069519043,6.452770233154297,13.294498443603516,7.01127815246582,9.487663269042969,9.43381118774414,5.948116302490234,7.018257141113281,7.102033615112305,8.153226852416992,9.273235321044922,7.784215927124023,8.156225204467773,7.253456115722656,6.561481475830078,7.3892669677734375,6.852701187133789,7.003299713134766,7.078096389770508,7.133947372436523,7.528894424438477,7.373310089111328
4,31043.298367859366,20258.99770148288,18037.177761175895,23928.097086846865,24622.12319952499,23625.75297729735,24056.5425766502,28700.322931644656,27926.478262738943,27472.277600717698,26603.214431646535,35494.48396617684,28104.09734222281,31230.285857359544,31686.952442241854,32257.09917848678,31081.31516169629,30837.66807218934,31002.165586819283,31329.140484273663,20258.99770148288,18037.1777611759,23928.09708684686,24622.12319952498,23625.75297729735,24056.542576650205,28700.32293164465,27926.47826273894,27459.225252950077,26605.335637987075,34280.372613585016,28559.057304793696,30928.35306728618,30825.27257952966,31209.675418064766,31227.09299458518,31605.526438393226,32087.362240774193,31043.298367859366,20258.99770148288,18037.1777611759,23928.097086846865,24622.12319952498,23625.752977297365,24056.54257665021,28700.322931644645,27926.47826273894,27459.22525295017,26605.335637987806,34280.37261358502,28559.057304793696,30928.35306728616,30825.27257952967,31209.675417344286,31227.09299456887,31605.526438393234,32087.362240774193,31043.298367859366,20258.997701482866,18019.697485003653,23928.097086846865,24622.123199524973,23274.991036872576,23698.45462025159,28700.322931644652,27926.478262738943,27472.277600717694,26603.214431646535,31168.627325052483,27733.749990258802,30825.794587491593,30028.887443462867,30975.709311401104,30667.115074138863,30812.46809677448,31242.26073950122,31043.298367859366
5,905.4580221101708,0.0,65.66190492419895,0.0,0.0,18.480186742286474,73.3009430816132,33.03864145722293,0.0,102.38198813895778,0.0,831.6191182281236,769.1849186549839,597.1951439446246,597.1839406483812,600.4975822689868,935.6157261451598,934.9714828199237,932.7400237732409,967.4922737060174,0.0,65.66190492419896,0.0,0.0,18.480186742286474,73.30094308161313,33.03864145722304,0.0,18.74310189926152,0.0,772.4871519643368,770.1774069855502,572.4749700980998,565.8691462748443,607.944753151685,925.6679877140931,929.6845927087442,930.2737961771362,905.458022110171,0.0,65.66190492419896,0.0,0.0,18.480186742286335,73.30094308161308,33.03864145722307,0.0,18.74310189932413,0.0,772.4871519643357,770.1774069855489,572.4749700981006,565.869146274845,607.944753132336,925.6679877096738,929.6845927087445,930.2737961771375,905.458022110171,161.12860387246667,65.8271132746498,0.0,0.0,22.168825264088923,68.53414351819549,33.038641457222894,40.33285330533916,137.06739588074532,134.6738063880144,763.4222729210665,586.1933500585681,565.8797620989643,571.3981918310914,600.4975822689871,938.4913839767677,935.1464381346013,931.0731204410552,905.4580221101706
6,121598.84507824968,87983.40009431946,91960.91937397375,78128.05401954499,78735.32303914259,94544.85666517029,109325.7234327285,112719.26592276462,112263.97211508514,101216.21839839818,104316.17803335917,101440.08427015916,112570.99118876942,112740.66900461762,122100.25146627788,125208.86987238596,127761.61711673724,123358.37901104524,120252.56852967729,122019.58293646757,87983.40009431946,91960.91937397375,78128.05401954499,78735.32303914259,94544.85666517029,109325.7234327285,112719.26592276462,112263.97211508514,100734.4582350851,104316.17803335917,101440.08427015916,113948.76911409911,110746.75607861689,122147.06267207288,123720.25898148092,124208.86414746556,122755.19782141777,119981.51881817778,121598.8450782497,87983.40009431946,91960.91937397375,78128.05401954499,78735.32303914259,94544.85666517029,109325.7234327285,112719.26592276462,112263.97211508514,100734.45823510375,104316.17803335917,101440.08427015916,113948.76911409911,110746.7560786169,122147.06267207288,123720.25898148092,124208.86414746556,122755.19782141777,119981.51881817778,121598.8450782497,87983.40009431944,91960.91937397377,80525.67202039858,78735.3230391426,94544.85666517026,107032.02195869855,112719.2659227646,112263.97211508514,99568.61582763815,104316.17803335917,104822.84425832574,113424.5065769445,110239.19898379057,122147.06267207288,123720.25898148092,125043.5291283057,122490.53707792745,119981.51881817778,121598.8450782497
7,338969.6030396784,331144.20784717647,346559.81399729266,388897.185638945,395501.8858323482,376746.73829415056,363831.16501306836,354959.8800721543,356527.93053329317,361004.45131817466,355476.61980820086,366476.900570979,352884.7178403083,352298.8014783702,341526.1419791113,336810.28369733,335803.67699303955,340888.1206038592,342854.6697700629,341371.967574359,331144.20784717647,346559.81399729266,388897.1856389451,395501.8858323482,376746.73829415074,363831.16501307074,354959.8800721621,356527.93053329404,360585.4058364051,355303.3936176763,366720.0585557108,349772.1747069039,353200.5333542743,339901.94653676957,337408.9146545356,337338.1691159862,338982.4822838823,340395.67435919633,338969.6030415975,331144.20784717647,346559.81399729266,388897.18563899054,395501.88583234814,376746.73829415056,363831.1650131007,354959.88007219165,356527.9305332986,360585.405836403,355303.39361763623,366720.0585556252,349772.17470692255,353200.5333542919,339901.9465368413,337408.9146551046,337338.1691159374,338982.4822838886,340395.67435922544,338969.6030415975,323594.35672257765,342395.4102689388,381780.8813108637,389757.99464563356,371316.38371831557,360638.6897060473,348795.58448676695,350545.9324041792,357893.20857073227,351526.3643737811,361740.59194437496,346743.078042751,350678.47331529483,338106.616589016,335384.5486727011,335433.6065426774,338513.1215537242,340215.51136940584,338969.6030396817
8,11788.17210981721,14692.073849841923,12741.903643722411,12271.141839189817,12678.08246228771,12273.205215292279,12529.543452412181,14173.85436112209,13747.075224362878,13496.581327794454,13017.288720390574,9054.11530505033,11552.10898678317,11875.601962189865,11759.897021088118,11721.344306549216,11807.519847775962,11706.159884932506,11588.633231707867,11204.454970013732,14692.073849841916,12741.903643722408,12271.141839189815,12678.082462287713,12273.205215292286,12529.543452412174,14173.854361122092,13747.075224362883,14050.122454198689,13148.791491075912,9998.813991538884,11447.281349421273,12193.714997803852,12224.404807025014,11985.910721646836,11852.175602421486,11512.208264847597,11314.525846271907,11788.172109817213,14692.07384984192,12741.903643722411,12271.14183918982,12678.082462287712,12273.205215292277,12529.543452412185,14173.854361122092,13747.07522436288,14050.122454194761,13148.791491121443,9998.813991538886,11447.281349421271,12193.714997803847,12224.404807025014,11985.910721828823,11852.175602466936,11512.208264847595,11314.52584627191,11788.172109817213,14692.07384984191,12746.318947419497,12271.141839189817,12678.082462287713,12604.917448133137,12868.183828920977,14173.85436112209,13747.075224362878,13496.581327794456,13017.288720390576,10643.993201671694,13173.96861912105,12224.634139428534,12425.56193983756,12045.00769503363,11912.141717585404,11712.525090122592,11527.988136353359,11788.17210981721
