,0,1,2,3,4,5,6,7,8,9,10,11,12,13,14,15,16,17,18,19,20,21,22,23,24,25,26,27,28,29,30,31,32,33,34,35,36,37,38,39,40,41,42,43,44,45,46,47,48,49,50,51,52,53,54,55,56,57,58,59,60,61,62,63,64,65,66,67,68,69,70,71,72,73,74,75,76,77,78,79,80,81,82,83,84,85,86,87,88,89,90,91,92,93,94,95
0,417017.24934356223,403396.72455868294,411423.3159847154,418520.91806251445,416800.2984952253,417213.485980732,419361.0297301144,418838.89168931486,418510.4798137745,418087.218776236,419365.79005542904,418404.1991206496,419135.7866609468,419680.4874307288,419702.7343740366,419967.0819954503,419767.9862042852,419668.1247649611,419570.51593421196,419442.25702736515,403396.7245586829,411423.3159847155,418520.9180625145,416800.29849522526,417213.4859807321,419301.853539872,416949.41351870075,416493.4002587175,411394.7222367201,417888.3672229401,416549.4754426843,416948.1365096509,417529.0123825541,417525.957744437,417631.60830791935,417280.85255477147,417197.2590211579,417145.2787256952,417017.24934356223,403396.7245586829,411423.3159847155,418520.9180625145,416800.2984952254,417213.4859807321,419301.8535398719,416949.41351870075,416493.4002587175,411394.72223672003,417888.36722294,416549.4754426844,416948.13650965097,417529.0123825542,417525.957744437,417631.60830791935,417280.8525547714,417197.2590211579,417145.2787256952,417017.24934356223,403396.7245586828,411423.3159847155,418520.9180625145,416800.29849522526,417213.485980732,419301.8535398719,416949.41351870063,416493.4002587175,411394.72223672003,417888.3672229398,416549.47544268443,416948.1365096509,417529.0123825542,417525.9577444371,417631.60830791947,417280.85255477135,417197.25902115786,417145.2787256953,417017.24934356223,403396.72455868096,410485.5416350461,407838.0864437831,406666.2198363953,407978.711092553,409378.3857858251,409539.5449863457,410427.63423581165,410178.7024616473,416581.2855976899,415760.8650676265,416495.2604071482,417102.3180278971,417077.917368362,417253.57533485966,417149.5448898159,417121.0412965193,417138.61764508724,417017.24934356223
1,87607.0,731.0,972.0,1213.0,1454.0,1695.0,1936.0,2177.0,2418.0,2900.0,3623.0,5069.0,6515.0,8684.0,11576.0,14468.0,21698.0,28928.0,43388.0,87973.0,18905.0,19121.0,19337.0,19553.0,19769.0,19985.0,20201.0,20417.0,20849.0,21497.0,22793.0,24089.0,26033.0,28625.0,31217.0,37697.0,44177.0,57137.0,97097.0,11995.0,13255.0,13505.0,13275.0,13511.0,14377.0,14843.0,15075.0,15859.0,16807.0,19281.0,21431.0,23833.0,27677.0,30177.0,36869.0,43409.0,56533.0,97097.0,18103.0,18295.0,18487.0,18679.0,18871.0,19063.0,19255.0,19447.0,19831.0,20407.0,21559.0,22711.0,24439.0,26743.0,29047.0,34807.0,40567.0,52087.0,87607.0,87607.0,87607.0,87607.0,87607.0,87607.0,87607.0,87607.0,87607.0,87607.0,87607.0,87607.0,87607.0,87607.0,87607.0,87607.0,87607.0,87607.0,87607.0,87607.0
2,87610.0,731.0,971.0,1211.0,1451.0,1691.0,1931.0,2171.0,2411.0,2891.0,3611.0,5051.0,6491.0,8651.0,11531.0,14411.0,21611.0,28811.0,43211.0,87611.0,9855.0,10095.0,10335.0,10575.0,10815.0,11055.0,11295.0,11535.0,12015.0,12735.0,14175.0,15615.0,17775.0,20655.0,23535.0,30735.0,37935.0,52335.0,96735.0,6400.0,7162.0,7419.0,7436.0,7686.0,8251.0,8616.0,8864.0,9520.0,10390.0,12419.0,14286.0,16675.0,20181.0,23015.0,30321.0,37551.0,52033.0,96735.0,9418.0,9634.0,9850.0,10066.0,10282.0,10498.0,10714.0,10930.0,11362.0,12010.0,13306.0,14602.0,16546.0,19138.0,21730.0,28210.0,34690.0,47650.0,87610.0,87610.0,87610.0,87610.0,87610.0,87610.0,87610.0,87610.0,87610.0,87610.0,87610.0,87610.0,87610.0,87610.0,87610.0,87610.0,87610.0,87610.0,87610.0,87610.0
3,3.473783493041992,0.022005081176757812,0.027004241943359375,0.025997161865234375,0.03200721740722656,0.040019989013671875,0.042999267578125,0.05001258850097656,0.05401039123535156,0.07401275634765625,0.10103034973144531,0.08801651000976562,0.10502243041992188,0.14303207397460938,0.1890411376953125,0.23704147338867188,0.4491004943847656,0.6821517944335938,1.1572513580322266,3.2975902557373047,0.2220478057861328,0.2680492401123047,0.3730812072753906,0.3820838928222656,0.41709327697753906,0.4410972595214844,0.5130939483642578,0.4871082305908203,0.665130615234375,0.84619140625,1.0562362670898438,1.141275405883789,1.390310287475586,1.6463565826416016,1.7598934173583984,1.9034271240234375,1.9434375762939453,2.5105342864990234,3.531942367553711,0.1330127716064453,0.1865692138671875,0.25272560119628906,0.24405479431152344,0.33158302307128906,0.323577880859375,0.34584999084472656,0.35009765625,0.38369178771972656,0.5416622161865234,0.8808517456054688,1.0858879089355469,1.3493404388427734,1.6307716369628906,1.8152198791503906,2.130126953125,2.1455249786376953,2.4767684936523438,3.4060611724853516,0.4221019744873047,0.6121368408203125,0.7627792358398438,0.7936859130859375,0.8139801025390625,0.7791652679443359,0.7770938873291016,0.9592132568359375,0.7771701812744141,1.2087726593017578,1.2818946838378906,1.9224281311035156,1.8509578704833984,2.3088722229003906,2.540040969848633,2.3745384216308594,2.067464828491211,2.2980403900146484,3.4376296997070312,2.570819854736328,2.258319854736328,2.620635986328125,2.8154735565185547,2.838350296020508,2.6296730041503906,2.623046875,3.4001941680908203,2.8234691619873047,2.8486289978027344,3.0148582458496094,3.3670654296875,3.2192554473876953,3.1152286529541016,3.1515159606933594,2.8759288787841797,2.887125015258789,3.336088180541992,3.70245361328125
4,81026.56600000005,80824.4710241904,83542.01688154932,82068.09326153967,82007.12335529535,82114.70098439537,81729.90593212679,81318.41871611706,81169.84032341099,80772.43624631743,80810.79001105292,81084.61552429409,81138.74853365672,81087.94574491066,81021.55287443375,81076.43746197717,81069.3592340111,81039.7234929032,81026.49212910091,81026.56600000005,80824.4710241904,83542.01688154932,82068.0932615397,82007.12335529535,82114.70098439539,81729.90593212679,81318.41871611706,81169.84032341099,80772.43624631743,80810.79001105292,81084.61552429409,81138.74853365672,81087.94574491064,81021.55287443376,81076.43746197717,81069.3592340111,81039.7234929032,81026.49212910088,81026.56600000005,80824.4710241904,83542.01688154932,82068.09326153978,82007.12335529535,82114.70098439539,81729.90593212679,81318.41871611706,81169.84032341099,80772.43624631743,80810.79001105292,81084.61552429409,81138.7485336567,81087.94574491064,81021.55287443376,81076.43746197717,81069.3592340111,81039.7234929032,81026.49212910088,81026.56600000005,80824.4710241904,83542.01688154935,82068.09326153965,82007.12335529535,82114.70098439539,81729.90593212679,81318.41871611706,81169.84032341099,80772.43624631743,80810.79001105292,81084.61552429409,81138.74853365672,81087.94574491064,81021.55287443375,81076.43746197717,81069.35923401112,81039.7234929032,81026.49212910091,81026.56600000005,80824.47102419041,83542.01688154935,80751.31651700861,82007.12335529533,82114.70098440273,81729.9059321268,81318.41871611708,81169.840323411,80772.43624626193,80810.79001105296,81084.61552429409,81138.7485336567,81087.94574491066,81021.5528744338,81076.43746197718,81069.35923401115,81039.72349290321,81026.49212910091,81026.56600000005
5,6200.132528918355,0.0,366.48436329479074,5541.736755681537,5528.123896199575,5642.321206616845,5662.053099435234,5638.012192702141,5612.706312978643,5703.504526994541,6370.644141207555,6321.829241805583,6336.833911719557,6403.268042416405,6610.587152472115,6644.946262882146,6637.433687263249,6608.4905933432465,6620.834597291261,6580.822373400278,0.0,366.48436329479085,5541.736755681537,5528.123896199574,5642.321206616845,5673.44229257575,5596.668398445348,5575.726920871666,459.6544182480506,5936.124424280631,5904.803898480859,5977.709305644973,6155.0388765973685,6275.887436905076,6304.396433978414,6215.232286249357,6229.091161380853,6215.318804358522,6200.132528918354,0.0,366.48436329479114,5541.736755681537,5528.123896199574,5642.321206616844,5673.44229257575,5596.668398445348,5575.726920871667,459.65441824804884,5936.1244242806315,5904.803898480859,5977.709305644972,6155.0388765973685,6275.887436905075,6304.396433978405,6215.232286249356,6229.091161380852,6215.318804358522,6200.132528918354,0.0,366.4843632947906,5541.736755681537,5528.123896199577,5642.321206616846,5673.4422925757535,5596.668398445377,5575.726920871667,459.65441824804907,5936.12442428063,5904.803898480858,5977.709305644983,6155.038876597369,6275.887436905076,6304.396433978395,6215.232286249355,6229.091161380852,6215.31880435852,6200.132528918355,0.0,366.4843632947907,438.4892664256103,426.1958609889253,433.1201727536445,490.695563334302,419.2660043804451,417.334982445831,388.33197605539186,5936.813289834379,5828.451303308564,5908.4598510159,6128.695606421841,6156.06387311535,6156.308470519177,6275.921087103946,6238.0095068985265,6211.30144733763,6200.132528918355
6,266336.96900036285,250141.9954178707,260921.68009625637,263668.22728438117,264071.9764632581,264936.221093465,265889.7075911369,267688.1429603157,268289.88210355927,269738.76560291275,272358.27263935574,271572.5413068558,272881.7760162422,271855.98829171,271106.7690631584,271501.68760648055,271406.70846693154,271376.10176833987,271452.17369769874,271149.95961541845,250141.9954178707,260921.68009625637,263668.22728438117,264071.97646325815,264936.221093465,265819.14220775396,265840.0085839584,266309.7819406092,262457.78375654225,264244.86244828097,264999.1119202515,266550.3078795672,267078.53047571843,266830.4953772163,267030.02039960335,266271.1991021574,266525.3475647167,266483.2258913993,266336.96900036285,250141.9954178707,260921.68009625637,263668.2272843813,264071.97646325815,264936.22109346505,265819.14220775396,265840.0085839584,266309.7819406092,262457.78375654225,264244.862448281,264999.1119202515,266550.3078795672,267078.5304757185,266830.4953772163,267030.0203996033,266271.1991021573,266525.3475647167,266483.2258913993,266336.96900036285,250141.9954178707,260921.68009625646,263668.2272843811,264071.9764632582,264936.2210934649,265819.14220775396,265840.00858395844,266309.7819406092,262457.7837565422,264244.8624482805,264999.11192025157,266550.30787956715,267078.5304757185,266830.4953772163,267030.0203996032,266271.1991021573,266525.3475647167,266483.22589139943,266336.96900036285,250141.99541787137,259983.9057465863,256242.56140761223,258880.14897373653,260760.70000782618,261019.47269305476,262533.867059384,264356.38154948165,261313.08642355615,264506.8825915928,264286.8541403606,265865.13494303374,266182.44887099706,265630.8283705863,265723.0644878528,266474.58113117894,266459.747974213,266442.7596868134,266336.96900036285
7,46942.8416955,50826.669048322125,45090.54155688118,45173.74811994616,44659.5348846536,44699.686492047455,45520.648580484616,46800.62347963727,46719.94031400172,47947.17447392905,47761.450267890104,46555.1412122508,46585.31581662735,46986.76368428086,46939.47482148096,46978.210826970106,46973.19090644688,46952.173066145086,46942.78908057839,46942.8416955,50826.669048322125,45090.54155688118,45173.74811994612,44659.5348846536,44699.686492047455,45520.648580484616,46800.62347963727,46719.94031400172,47947.17447392905,47761.450267890104,46555.1412122508,46585.31581662735,46986.76368428091,46939.47482148091,46978.210826970106,46973.19090644688,46952.173066145086,46942.789080578455,46942.8416955,50826.669048322125,45090.54155688118,45173.74811994591,44659.5348846536,44699.686492047455,45520.648580484616,46800.62347963727,46719.94031400172,47947.17447392905,47761.450267890104,46555.1412122508,46585.315816627444,46986.76368428091,46939.47482148091,46978.210826970106,46973.19090644688,46952.173066145086,46942.789080578455,46942.8416955,50826.669048322125,45090.54155688109,45173.74811994623,44659.5348846536,44699.686492047455,45520.648580484616,46800.62347963727,46719.94031400172,47947.17447392905,47761.450267890104,46555.1412122508,46585.31581662735,46986.76368428091,46939.47482148096,46978.210826970106,46973.19090644681,46952.173066145086,46942.78908057839,46942.8416955,50826.66904832217,45090.541556881195,48717.937470909,44659.534884653855,44699.68649208541,45520.64858048483,46800.62347963702,46719.94031400142,47947.17447397281,47761.45026789043,46555.14121225122,46585.31581662677,46986.763684280864,46939.47482148065,46978.21082697046,46973.1909064469,46952.173066145166,46942.78908057832,46942.8416955
8,16510.7401187861,21603.58906829962,21502.593086733763,22069.112640966046,20533.539895818532,19820.556204207525,20558.714526930762,17393.694340542876,16718.110759823634,13925.337926082066,12064.632995922639,12870.071835443465,12193.112382700916,13346.52166741123,14024.350462490866,13765.799837139843,13681.293909631611,13691.635844228935,13528.226429541595,13742.067343051142,21603.589068299607,21502.593086733767,22069.112640966043,20533.539895818503,19820.556204207514,20558.71452693075,17393.69434054287,16718.11075982362,19757.673341683098,19135.140071435224,18005.802887407266,16696.05497415454,16220.733601047135,16458.547234400547,16242.54318538992,16751.871025906206,16450.923736011573,16477.452820257044,16510.7401187861,21603.589068299607,21502.593086733763,22069.112640966054,20533.539895818518,19820.556204207514,20558.714526930755,17393.694340542865,16718.110759823623,19757.673341683105,19135.140071435235,18005.802887407266,16696.05497415456,16220.73360104713,16458.547234400557,16242.543185389986,16751.871025906206,16450.923736011573,16477.452820257044,16510.7401187861,21603.58906829962,21502.593086733767,22069.112640966032,20533.539895818412,19820.556204207594,20558.714526930762,17393.6943405427,16718.110759823634,19757.67334168312,19135.14007143539,18005.802887407266,16696.054974154635,16220.733601047115,16458.547234400547,16242.543185390063,16751.87102590621,16450.923736011573,16477.452820257055,16510.7401187861,21603.58906829962,21502.59308673377,21687.781781822014,20693.216761720498,19970.503435590595,20617.663016834216,18467.369726823435,17764.13706646225,19757.67334168323,17565.34943731187,18005.802887407262,16997.601262821823,16716.46412128349,17329.997428738225,17319.55408753678,16356.492531065449,16431.387256352078,16515.275301256457,16510.7401187861
