,0,1,2,3
0,5.0,5.0,5.0,5.0
1,3.461898659264149,3.3926153812273125,3.512132544451795,3.392615381227313
2,0.3683738531222719,0.35613741567390494,0.4500253966204694,0.40229123026651464
3,14.816029175745975,13.152303190527327,10.114616562691708,9.84512439465461
4,2547.54863924675,2608.7554527862458,1797.971823714643,1820.1376899293255
5,2498.5967816871107,2437.389968147615,2307.9005447551576,2285.734678540475
6,11595.576220455105,10372.977338027169,11576.903788281412,10350.223545460756
7,68.54416679742273,68.61172283141948,56.79436276691261,68.69659245199384
8,3761.1370390641214,3286.989079077806,3779.7153833937255,3298.085327700572
9,5453.446006485319,5040.573794767068,5650.730991797377,5203.411934650622
10,38224.079710798425,35968.57271704841,39793.304216372504,37460.266383198636
