,0,1,2,3,4,5,6,7,8,9,10,11,12,13,14,15,16,17,18,19,20,21,22,23,24,25,26,27,28,29,30,31,32,33,34,35,36,37,38,39,40,41,42,43,44,45,46,47,48,49,50,51,52,53,54,55,56,57,58,59,60,61,62,63,64,65,66,67,68,69,70,71,72,73,74,75,76,77,78,79,80,81,82,83,84,85,86,87,88,89,90,91,92,93,94,95
0,9668510.153478492,5230055.850753187,6564569.318374682,6666486.741384319,8565818.567749068,8560715.09258673,8499165.888416136,8530557.077968212,8911801.16160332,9351995.165302008,9201245.332665201,10014324.651038757,9666028.014791617,9837895.010399707,10826265.733026033,10636128.428708915,10725900.215715336,10656736.705174739,10629132.71117739,10445349.583166258,5230055.8507528305,6564569.318374683,6666486.741384316,8565818.567749068,8570715.092416994,8509165.888115296,8530557.07796821,8921801.161503341,9315044.838145234,9187304.212944526,9782727.34497751,9455501.884125449,9632941.760421522,10245782.903531974,10001419.31934994,10034093.540552277,10041761.51075864,9922293.850220278,9658510.153782453,5230055.850752987,6564569.318374684,6666486.74138432,8565818.567748621,8570715.092416994,8509165.888115296,8530557.077968212,8921801.161503378,9315044.838145236,9187304.212945357,9782727.344977513,9455501.884125441,9632941.760421528,10245782.90353198,10001419.319349945,10034093.540552277,10041761.510758633,9922293.850220278,9658510.153782453,5230055.85075318,6564569.318374734,6666486.741384335,8565818.567748368,8570715.09241699,8509165.888115294,8530557.07796821,8921801.161503686,9315044.838145237,9187304.212944452,9782727.34497751,9455501.884125443,9632941.760421528,10245782.903531978,10001419.319349933,10034093.540552275,10041761.510758638,9922293.85022028,9658510.153782453,5227118.542568147,6563840.497137581,6650452.755014516,8513005.01543881,8544819.298730856,8419805.180740973,8426151.565334799,8720148.789121222,8913553.438942527,8862598.840836292,9353038.0754477,9177777.676953394,9347666.716751676,9823397.903440475,9724296.697135355,9811158.198772019,9796915.486715635,9779595.040672574,9658510.153782453
1,113894.0,958.0,1272.0,1586.0,1900.0,2214.0,2528.0,2842.0,3156.0,3784.0,4726.0,6610.0,8494.0,11320.0,15088.0,18856.0,28276.0,37696.0,56536.0,114626.0,37306.0,37570.0,37834.0,38098.0,38362.0,38626.0,38890.0,39154.0,39682.0,40474.0,42058.0,43642.0,46018.0,49186.0,52354.0,60274.0,68194.0,84034.0,132874.0,19678.0,23730.0,27826.0,31182.0,30762.0,33322.0,34102.0,35194.0,35142.0,37058.0,39502.0,41706.0,44306.0,47798.0,50866.0,59330.0,67466.0,83442.0,132874.0,35702.0,35918.0,36134.0,36350.0,36566.0,36782.0,36998.0,37214.0,37646.0,38294.0,39590.0,40886.0,42830.0,45422.0,48014.0,54494.0,60974.0,73934.0,113894.0,113894.0,113894.0,113894.0,113894.0,113894.0,113894.0,113894.0,113894.0,113894.0,113894.0,113894.0,113894.0,113894.0,113894.0,113894.0,113894.0,113894.0,113894.0,113894.0
2,122659.0,1029.0,1365.0,1701.0,2037.0,2373.0,2709.0,3045.0,3381.0,4053.0,5061.0,7077.0,9093.0,12117.0,16149.0,20181.0,30261.0,40341.0,60501.0,122661.0,1757.0,2093.0,2429.0,2765.0,3101.0,3437.0,3773.0,4109.0,4781.0,5789.0,7805.0,9821.0,12845.0,16877.0,20909.0,30989.0,41069.0,61229.0,123389.0,1247.0,1653.0,2033.0,2427.0,2757.0,3137.0,3491.0,3857.0,4527.0,5569.0,7631.0,9669.0,12709.0,16759.0,20789.0,30901.0,40993.0,61173.0,123389.0,18403.0,18691.0,18979.0,19267.0,19555.0,19843.0,20131.0,20419.0,20995.0,21859.0,23587.0,25315.0,27907.0,31363.0,34819.0,43459.0,52099.0,69379.0,122659.0,122659.0,122659.0,122659.0,122659.0,122659.0,122659.0,122659.0,122659.0,122659.0,122659.0,122659.0,122659.0,122659.0,122659.0,122659.0,122659.0,122659.0,122659.0,122659.0
3,325.88382148742676,0.03590202331542969,0.027923583984375,0.03191375732421875,0.05684852600097656,0.08975982666015625,0.1077117919921875,0.08377838134765625,0.165557861328125,0.2513275146484375,0.4667510986328125,0.7440147399902344,1.0880928039550781,1.5568408966064453,2.378641128540039,2.840414047241211,5.8523712158203125,3.174520492553711,23.177108764648438,190.3706512451172,1.801187515258789,2.0963973999023438,2.2839012145996094,3.8876171112060547,2.7137508392333984,4.649578094482422,4.6655426025390625,8.929153442382812,11.990978240966797,8.077428817749023,15.86363410949707,21.35197639465332,28.29942512512207,40.39612007141113,54.02473068237305,93.02357292175293,284.65380477905273,325.6353244781494,182.18343353271484,1.6665477752685547,1.3843021392822266,1.8650169372558594,4.824115753173828,4.358358383178711,5.586080551147461,3.4697341918945312,9.172502517700195,11.083395004272461,8.939123153686523,15.258243560791016,24.85561180114746,33.36787796020508,47.47420310974121,54.25010681152344,130.81559562683105,215.7756690979004,511.0638313293457,183.42905044555664,1.8430767059326172,2.486356735229492,2.270933151245117,4.13694953918457,3.8237857818603516,3.966402053833008,6.8357391357421875,9.340047836303711,11.547151565551758,14.25391960144043,32.66773223876953,47.01042175292969,103.63016319274902,246.5244312286377,185.98115348815918,249.44910430908203,220.55377197265625,466.2154426574707,90.06636238098145,145.4124927520752,159.92969131469727,141.27652549743652,327.73831939697266,300.94986724853516,154.84922981262207,149.32100296020508,318.5067367553711,400.8229274749756,320.2641773223877,368.99593925476074,432.68371200561523,308.46066665649414,239.02321434020996,338.7895851135254,438.28963470458984,188.6797275543213,96.54895782470703,96.53598976135254
4,1656688.7002995305,970542.0149576787,797412.4078123638,1111567.8606403405,1130835.6329430544,919526.8551221276,1629785.8106386599,1613614.6416494779,1522997.4097902304,828051.4257179035,1349598.1087123752,1302806.8443255783,1312895.6848531018,1729176.9036943873,1808175.06870298,1672826.3232891383,2400161.0806035083,2439739.776353581,2273888.124969506,2317959.5994295515,970542.0149368809,797412.4078123644,1111567.8606403386,1130835.6329430544,929526.8549523931,1639785.810337821,1613614.6416494779,1532997.4421980656,902959.1974421669,1349824.8280282808,1215623.875185398,1265850.192180502,1378719.618727159,1673004.2778319477,1667375.5378296813,1715676.6982923027,1643472.5801868786,1785000.5204716371,1646688.7006034902,970542.0149343569,797412.4078123637,1111567.860640341,1130835.632943067,929526.8549523932,1639785.8103378213,1613614.6416494783,1532997.4421980556,902959.1974421694,1349824.8280284405,1215623.8751853989,1265850.192180503,1378719.6187271539,1673004.2778319449,1667375.5378296794,1715676.6982923043,1643472.5801868786,1785000.5204716371,1646688.7006034902,970542.0149576789,797412.407812364,1111567.8606403405,1130835.6329430658,929526.8549523859,1639785.8103378231,1613614.6416494364,1532997.4421679673,902959.1974421749,1349824.8280287907,1215623.8751853944,1265850.1921805043,1378719.6187271855,1673004.277831953,1667375.5378296664,1715676.698292303,1643472.5801868802,1785000.5204716346,1646688.7006034907,965089.7137016067,793693.7607065669,1061535.5431506624,1254161.2262829714,967711.9883717003,1058769.363375572,1130277.8170344362,1300763.230020586,1013896.7251805677,1294895.335576023,1227875.246390853,1231168.6726099155,1437622.4448956558,1696296.8947912096,1622726.8050326195,1645048.1451992895,1479183.9788369453,1673977.7766834486,1646688.7006034907
5,3981251.9650748405,3215607.3209683504,4477499.021537501,4303171.246160436,4323219.517008746,4651950.257724816,4568164.254146994,4630280.568660067,4114847.7815314257,5232595.119074938,4618655.584981707,5348634.488979979,4996188.9570240965,4763982.52955577,5256587.553851087,5277021.734964096,4555496.35866624,4565245.20646735,4689484.956703645,4592131.178767595,3215607.321019778,4477499.021537501,4303171.246160436,4323219.517008747,4651950.257724818,4568164.254146994,4630280.568660066,4114847.7535897708,4718502.195921004,4618701.868641318,4742798.71989924,4329220.083316848,4297284.2550214175,4191706.689374216,4200186.088526979,4199113.734256623,4292722.590403384,4007405.4692976284,3981251.9650748405,3215607.321026065,4477499.021537502,4303171.246160436,4323219.517007877,4651950.257724816,4568164.254146994,4630280.5686600655,4114847.753589779,4718502.195921002,4618701.868642481,4742798.719899243,4329220.083316842,4297284.255021422,4191706.689374224,4200186.088526981,4199113.7342566205,4292722.590403378,4007405.469297628,3981251.9650748405,3215607.3209683504,4477499.021537502,4303171.246160438,4323219.517007466,4651950.257724822,4568164.25414701,4630280.568660065,4114847.753622209,4718502.195921001,4618701.8686403325,4742798.719899238,4329220.083316849,4297284.255021423,4191706.689374218,4200186.088526998,4199113.734256623,4292722.59040338,4007405.4692976293,3981251.965074837,3215607.320971818,4478678.432652644,4318676.807476184,4165176.5991774793,4538769.563403398,4432975.062404053,4321334.082715883,4064613.867799954,4181142.482939934,4054374.647451761,4259617.911539101,4394009.2113634525,4204131.859231094,4047280.334885155,4065908.242964192,4089549.1125460225,4213227.555641493,4001378.761214273,3981251.965074837
6,2368381.312772318,0.0,0.0,0.0,2423622.9436565614,2330484.847043266,1743656.6134179805,1733285.0589637721,2423622.9436565605,2423622.943656559,2423622.9436565614,2423622.9436565605,2423622.9436565624,2423622.9436565624,2423622.9436565605,2423622.943656562,2423622.94365656,2423622.9436565633,2423622.943656557,2423622.943656566,0.0,0.0,0.0,2423622.9436565614,2330484.8470432637,1743656.613417981,1733285.0589637728,2423622.9436565605,2423622.9436565586,2423622.9436565614,2423622.9436565586,2423622.943656561,2423622.9436565605,2423622.943656561,2423622.9436565605,2423622.9436565596,2423622.9436565624,2423622.943656558,2368381.312772318,0.0,0.0,0.0,2423622.9436565614,2330484.847043266,1743656.61341798,1733285.058963772,2423622.9436565605,2423622.943656559,2423622.943656562,2423622.943656559,2423622.943656563,2423622.943656561,2423622.9436565633,2423622.943656561,2423622.9436565596,2423622.9436565614,2423622.9436565572,2368381.312772318,0.0,0.0,0.0,2423622.9436565614,2330484.8470432637,1743656.6134179507,1733285.0589638595,2423622.9436565605,2423622.9436565586,2423622.9436565605,2423622.94365656,2423622.9436565614,2423622.943656561,2423622.9436565624,2423622.9436565605,2423622.943656558,2423622.943656562,2423622.943656558,2368381.312772321,455.1227095336679,1117.8082761204234,9115.925843150642,2214465.9442601777,2423622.9436565554,1749228.6867439728,1826747.3013372163,1735301.1130550476,2423622.94365658,2144440.317431047,2423622.9436566164,2009577.8271212047,2133212.211726047,2167841.0082701775,2268042.6774045513,2423622.9436565456,2423622.9436565605,2379743.8358085346,2368381.312772321
7,420353.61980225856,2.384185791015626e-07,0.0,0.0,0.0,0.0,0.0,0.0,0.0,2.384185791015626e-07,2.384185791015626e-07,2.384185791015626e-07,2.384185791015626e-07,2.384185791015626e-07,0.0,3210.8134599817863,2.384185791015626e-07,0.0,0.0,0.0,0.0,0.0,0.0,0.0,0.0,0.0,0.0,2.7344062243291262e-06,237063.97074115608,2.384185791015626e-07,315362.0301727687,343399.97893154144,353976.38247229066,458646.6365005531,401806.8109371038,390047.25693904597,390467.06710021733,408322.66014680685,420353.6198022587,0.0,0.0,0.0,-7.139655687288192e-08,0.0,0.0,0.0,2.6216545020456074e-06,237063.97074115643,0.0,315362.0301727683,343399.9789315413,353976.3824722908,458646.63650055346,401806.8109371071,390047.25693904585,390467.0671002171,408322.66014680685,420353.6198022587,2.384185791015626e-07,0.0,0.0,2.384185791015626e-07,0.0,0.0,0.0,2.384185791015626e-07,237063.97074115608,2.384185791015626e-07,315362.03017276834,343399.9789315391,353976.3824722961,458646.63650054624,401806.8109371159,390047.25693904585,390467.0671002177,408322.6601468072,420353.61980225856,2.384185791015626e-07,2.384185791015626e-07,2.384185791015626e-07,2.384185791015626e-07,2.384185791015626e-07,253020.90031294138,267410.9030499329,301453.24252038845,311813.25749503286,305609.61285366473,356993.7293197493,368673.5429811057,348425.9831510505,454123.55886819377,425396.3287516915,352139.7995958188,372450.5622906808,419230.5197739394,420353.61980225856
8,387013.6143036691,1.7934703567171366e-07,0.0,0.0,0.0,0.0,0.0,0.0,0.0,0.0,3.28323273768189e-07,1.5056390517803044e-07,8.840404827134175e-08,9.829275944512903e-08,0.0,3083.8636159565663,2.536206791786149e-07,0.0,0.0,0.0,4.768371582031252e-07,0.0,0.0,0.0,0.0,0.0,0.0,4.768371582031252e-07,230719.86639840144,2.0073032073272243e-07,282990.3269206289,282651.81438608386,260194.4271709808,374595.24468204915,328577.14880193636,337990.444096264,333970.790931658,343921.8541885588,387013.61430366884,4.768371582031252e-07,0.0,0.0,4.768371582031252e-07,0.0,0.0,0.0,4.768371582031252e-07,230719.86639840272,0.0,282990.3269206291,282651.81438608514,260194.42717098256,374595.24468204996,328577.1488019381,337990.4440962644,333970.79093165806,343921.8541885589,387013.61430366884,1.7934291456039035e-07,0.0,0.0,0.0,0.0,0.0,0.0,3.5756769927384836e-07,230719.8663984037,8.326712532636478e-07,282990.3269206295,282651.814386081,260194.42717097877,374595.24468204845,328577.14880194387,337990.4440962649,333970.7909316572,343921.8541885595,387013.61430366884,3.9239803279579635e-07,0.0,0.0,2.2823086636217815e-07,0.0,255191.083887597,255053.004608084,384411.8722554785,283053.76293707965,302827.51165793213,334077.2427031511,390196.13730891433,340311.5353708898,432289.3597383116,397067.67295261554,384370.53832753876,381792.4194316199,363448.5321805874,387013.61430366884
9,284451.60683469416,3.217029673876807e-08,0.0,0.0,0.0,0.0,0.0,0.0,0.0,0.0,4.819521371157922e-08,3.217029673876807e-08,3.0063943197193044e-08,3.2117005842995016e-08,0.0,754.8795690607876,6.684037562990483e-08,0.0,0.0,9.504559215188056e-10,0.0,0.0,0.0,-5.7756292298486994e-11,0.0,0.0,0.0,3.0979013431912104e-06,262468.2253010648,2.6085166701379835e-07,289510.49822387315,285773.0885852291,299535.51397079526,508987.54547477624,405622.3162464687,386326.13673404115,388354.043652185,318897.6466344812,284451.6068346944,8.553245844299633e-08,0.0,0.0,2.605619505540783e-07,0.0,0.0,0.0,3.2472598779915193e-06,262468.2253010657,0.0,289510.4982238726,285773.08858522895,299535.51397080015,508987.54547477677,405622.3162464723,386326.13673404086,388354.043652185,318897.6466344815,284451.6068346944,3.217034280842575e-08,0.0,0.0,8.594421213713097e-07,3.360569384443608e-11,0.0,7.633647738224614e-11,3.671883535615909e-07,262468.22530106496,1.167327451833714e-06,289510.4982238792,285773.0885852266,299535.5139707669,508987.5454747748,405622.3162464821,386326.13673404045,388354.0436521863,318897.6466344819,284451.6068346946,-1.536968523064231e-08,6.977014698955137e-07,3.5661994247490265e-07,1.6969458594201794e-07,0.0,154977.8728388125,163269.02491472854,194934.83367407977,186287.00538803302,193009.44298690037,247449.91439683212,245503.07725262496,279971.0543673409,343966.3352760247,295931.1548489532,261384.86771277402,253383.79507490442,289314.72816762235,284451.6068346946
10,570369.3343911845,1043906.5148267078,1289657.889024817,1251747.634583542,688140.4741407053,658753.1326965194,557559.2102125015,553376.8086948938,850333.0266251037,867725.6768523686,809368.6953139445,939260.3740762181,933320.4292575013,921112.6334926183,1337880.1668154034,1255607.8701541186,1346619.832788468,1228128.7786972446,1242136.6858476826,1111635.8613125428,1043906.5147956943,1289657.8890248176,1251747.6345835414,688140.4741407048,658753.1326965201,557559.2102125005,553376.8086948937,850333.0220526358,539708.4386848811,795154.5726176646,512818.9509190408,524983.7830686829,619608.6194023192,615219.5660118717,574228.47335121,581316.3265774391,569151.4948277547,635122.7558246083,570369.3343911847,1043906.5147920024,1289657.8890248183,1251747.6345835417,688140.4741404495,658753.1326965201,557559.2102125009,553376.8086948951,850333.0220526364,539708.4386848812,795154.5726178746,512818.9509190402,524983.7830686804,619608.6194023179,615219.5660118689,574228.473351204,581316.3265774386,569151.4948277548,635122.7558246079,570369.3343911847,1043906.514826701,1289657.889024868,1251747.634583556,688140.4741401752,658753.1326965208,557559.2102125102,553376.8086948498,850333.0220559855,539708.438684877,795154.5726165297,512818.9509190405,524983.7830686828,619608.6194023157,615219.5660118761,574228.4733511673,581316.3265774385,569151.4948277561,635122.7558246076,570369.3343911853,1045966.385184573,1290350.4955013131,1261124.478543924,879201.2457175389,614714.8032989742,515642.21117802226,462059.431674506,738670.6297956835,513737.26134529564,567441.9728789577,503401.08744140767,538649.2083161809,603991.6280095985,681600.4116114003,649223.8151807311,655042.7917340244,673254.2317834322,652500.8868441699,570369.3343911851
